[
  {
    "id": 10000002,
    "name": "神里綾華",
    "rank": "QUALITY_ORANGE",
    "img": "/image/game/genshin/avatar/UI_AvatarIcon_Ayaka.png"
  },
  {
    "id": 10000003,
    "name": "ジン",
    "rank": "QUALITY_ORANGE",
    "img": "/image/game/genshin/avatar/UI_AvatarIcon_Qin.png"
  },
  {
    "id": 10000005,
    "name": "旅人",
    "rank": "QUALITY_ORANGE",
    "img": "/image/game/genshin/avatar/UI_AvatarIcon_PlayerBoy.png"
  },
  {
    "id": 10000006,
    "name": "リサ",
    "rank": "QUALITY_PURPLE",
    "img": "/image/game/genshin/avatar/UI_AvatarIcon_Lisa.png"
  },
  {
    "id": 10000007,
    "name": "旅人",
    "rank": "QUALITY_ORANGE",
    "img": "/image/game/genshin/avatar/UI_AvatarIcon_PlayerGirl.png"
  },
  {
    "id": 10000014,
    "name": "バーバラ",
    "rank": "QUALITY_PURPLE",
    "img": "/image/game/genshin/avatar/UI_AvatarIcon_Barbara.png"
  },
  {
    "id": 10000015,
    "name": "ガイア",
    "rank": "QUALITY_PURPLE",
    "img": "/image/game/genshin/avatar/UI_AvatarIcon_Kaeya.png"
  },
  {
    "id": 10000016,
    "name": "ディルック",
    "rank": "QUALITY_ORANGE",
    "img": "/image/game/genshin/avatar/UI_AvatarIcon_Diluc.png"
  },
  {
    "id": 10000020,
    "name": "レザー",
    "rank": "QUALITY_PURPLE",
    "img": "/image/game/genshin/avatar/UI_AvatarIcon_Razor.png"
  },
  {
    "id": 10000021,
    "name": "アンバー",
    "rank": "QUALITY_PURPLE",
    "img": "/image/game/genshin/avatar/UI_AvatarIcon_Ambor.png"
  },
  {
    "id": 10000022,
    "name": "ウェンティ",
    "rank": "QUALITY_ORANGE",
    "img": "/image/game/genshin/avatar/UI_AvatarIcon_Venti.png"
  },
  {
    "id": 10000023,
    "name": "香菱",
    "rank": "QUALITY_PURPLE",
    "img": "/image/game/genshin/avatar/UI_AvatarIcon_Xiangling.png"
  },
  {
    "id": 10000024,
    "name": "北斗",
    "rank": "QUALITY_PURPLE",
    "img": "/image/game/genshin/avatar/UI_AvatarIcon_Beidou.png"
  },
  {
    "id": 10000025,
    "name": "行秋",
    "rank": "QUALITY_PURPLE",
    "img": "/image/game/genshin/avatar/UI_AvatarIcon_Xingqiu.png"
  },
  {
    "id": 10000026,
    "name": "魈",
    "rank": "QUALITY_ORANGE",
    "img": "/image/game/genshin/avatar/UI_AvatarIcon_Xiao.png"
  },
  {
    "id": 10000027,
    "name": "凝光",
    "rank": "QUALITY_PURPLE",
    "img": "/image/game/genshin/avatar/UI_AvatarIcon_Ningguang.png"
  },
  {
    "id": 10000029,
    "name": "クレー",
    "rank": "QUALITY_ORANGE",
    "img": "/image/game/genshin/avatar/UI_AvatarIcon_Klee.png"
  },
  {
    "id": 10000030,
    "name": "鍾離",
    "rank": "QUALITY_ORANGE",
    "img": "/image/game/genshin/avatar/UI_AvatarIcon_Zhongli.png"
  },
  {
    "id": 10000031,
    "name": "フィッシュル",
    "rank": "QUALITY_PURPLE",
    "img": "/image/game/genshin/avatar/UI_AvatarIcon_Fischl.png"
  },
  {
    "id": 10000032,
    "name": "ベネット",
    "rank": "QUALITY_PURPLE",
    "img": "/image/game/genshin/avatar/UI_AvatarIcon_Bennett.png"
  },
  {
    "id": 10000033,
    "name": "タルタリヤ",
    "rank": "QUALITY_ORANGE",
    "img": "/image/game/genshin/avatar/UI_AvatarIcon_Tartaglia.png"
  },
  {
    "id": 10000034,
    "name": "ノエル",
    "rank": "QUALITY_PURPLE",
    "img": "/image/game/genshin/avatar/UI_AvatarIcon_Noel.png"
  },
  {
    "id": 10000035,
    "name": "七七",
    "rank": "QUALITY_ORANGE",
    "img": "/image/game/genshin/avatar/UI_AvatarIcon_Qiqi.png"
  },
  {
    "id": 10000036,
    "name": "重雲",
    "rank": "QUALITY_PURPLE",
    "img": "/image/game/genshin/avatar/UI_AvatarIcon_Chongyun.png"
  },
  {
    "id": 10000037,
    "name": "甘雨",
    "rank": "QUALITY_ORANGE",
    "img": "/image/game/genshin/avatar/UI_AvatarIcon_Ganyu.png"
  },
  {
    "id": 10000038,
    "name": "アルベド",
    "rank": "QUALITY_ORANGE",
    "img": "/image/game/genshin/avatar/UI_AvatarIcon_Albedo.png"
  },
  {
    "id": 10000039,
    "name": "ディオナ",
    "rank": "QUALITY_PURPLE",
    "img": "/image/game/genshin/avatar/UI_AvatarIcon_Diona.png"
  },
  {
    "id": 10000041,
    "name": "モナ",
    "rank": "QUALITY_ORANGE",
    "img": "/image/game/genshin/avatar/UI_AvatarIcon_Mona.png"
  },
  {
    "id": 10000042,
    "name": "刻晴",
    "rank": "QUALITY_ORANGE",
    "img": "/image/game/genshin/avatar/UI_AvatarIcon_Keqing.png"
  },
  {
    "id": 10000043,
    "name": "スクロース",
    "rank": "QUALITY_PURPLE",
    "img": "/image/game/genshin/avatar/UI_AvatarIcon_Sucrose.png"
  },
  {
    "id": 10000044,
    "name": "辛炎",
    "rank": "QUALITY_PURPLE",
    "img": "/image/game/genshin/avatar/UI_AvatarIcon_Xinyan.png"
  },
  {
    "id": 10000045,
    "name": "ロサリア",
    "rank": "QUALITY_PURPLE",
    "img": "/image/game/genshin/avatar/UI_AvatarIcon_Rosaria.png"
  },
  {
    "id": 10000046,
    "name": "胡桃",
    "rank": "QUALITY_ORANGE",
    "img": "/image/game/genshin/avatar/UI_AvatarIcon_Hutao.png"
  },
  {
    "id": 10000047,
    "name": "楓原万葉",
    "rank": "QUALITY_ORANGE",
    "img": "/image/game/genshin/avatar/UI_AvatarIcon_Kazuha.png"
  },
  {
    "id": 10000048,
    "name": "煙緋",
    "rank": "QUALITY_PURPLE",
    "img": "/image/game/genshin/avatar/UI_AvatarIcon_Feiyan.png"
  },
  {
    "id": 10000049,
    "name": "宵宮",
    "rank": "QUALITY_ORANGE",
    "img": "/image/game/genshin/avatar/UI_AvatarIcon_Yoimiya.png"
  },
  {
    "id": 10000050,
    "name": "トーマ",
    "rank": "QUALITY_PURPLE",
    "img": "/image/game/genshin/avatar/UI_AvatarIcon_Tohma.png"
  },
  {
    "id": 10000051,
    "name": "エウルア",
    "rank": "QUALITY_ORANGE",
    "img": "/image/game/genshin/avatar/UI_AvatarIcon_Eula.png"
  },
  {
    "id": 10000052,
    "name": "雷電将軍",
    "rank": "QUALITY_ORANGE",
    "img": "/image/game/genshin/avatar/UI_AvatarIcon_Shougun.png"
  },
  {
    "id": 10000053,
    "name": "早柚",
    "rank": "QUALITY_PURPLE",
    "img": "/image/game/genshin/avatar/UI_AvatarIcon_Sayu.png"
  },
  {
    "id": 10000054,
    "name": "珊瑚宮心海",
    "rank": "QUALITY_ORANGE",
    "img": "/image/game/genshin/avatar/UI_AvatarIcon_Kokomi.png"
  },
  {
    "id": 10000055,
    "name": "ゴロー",
    "rank": "QUALITY_PURPLE",
    "img": "/image/game/genshin/avatar/UI_AvatarIcon_Gorou.png"
  },
  {
    "id": 10000056,
    "name": "九条裟羅",
    "rank": "QUALITY_PURPLE",
    "img": "/image/game/genshin/avatar/UI_AvatarIcon_Sara.png"
  },
  {
    "id": 10000057,
    "name": "荒瀧一斗",
    "rank": "QUALITY_ORANGE",
    "img": "/image/game/genshin/avatar/UI_AvatarIcon_Itto.png"
  },
  {
    "id": 10000058,
    "name": "八重神子",
    "rank": "QUALITY_ORANGE",
    "img": "/image/game/genshin/avatar/UI_AvatarIcon_Yae.png"
  },
  {
    "id": 10000059,
    "name": "鹿野院平蔵",
    "rank": "QUALITY_PURPLE",
    "img": "/image/game/genshin/avatar/UI_AvatarIcon_Heizo.png"
  },
  {
    "id": 10000060,
    "name": "夜蘭",
    "rank": "QUALITY_ORANGE",
    "img": "/image/game/genshin/avatar/UI_AvatarIcon_Yelan.png"
  },
  {
    "id": 10000061,
    "name": "綺良々",
    "rank": "QUALITY_PURPLE",
    "img": "/image/game/genshin/avatar/UI_AvatarIcon_Momoka.png"
  },
  {
    "id": 10000062,
    "name": "アーロイ",
    "rank": "QUALITY_ORANGE_SP",
    "img": "/image/game/genshin/avatar/UI_AvatarIcon_Aloy.png"
  },
  {
    "id": 10000063,
    "name": "申鶴",
    "rank": "QUALITY_ORANGE",
    "img": "/image/game/genshin/avatar/UI_AvatarIcon_Shenhe.png"
  },
  {
    "id": 10000064,
    "name": "雲菫",
    "rank": "QUALITY_PURPLE",
    "img": "/image/game/genshin/avatar/UI_AvatarIcon_Yunjin.png"
  },
  {
    "id": 10000065,
    "name": "久岐忍",
    "rank": "QUALITY_PURPLE",
    "img": "/image/game/genshin/avatar/UI_AvatarIcon_Shinobu.png"
  },
  {
    "id": 10000066,
    "name": "神里綾人",
    "rank": "QUALITY_ORANGE",
    "img": "/image/game/genshin/avatar/UI_AvatarIcon_Ayato.png"
  },
  {
    "id": 10000067,
    "name": "コレイ",
    "rank": "QUALITY_PURPLE",
    "img": "/image/game/genshin/avatar/UI_AvatarIcon_Collei.png"
  },
  {
    "id": 10000068,
    "name": "ドリー",
    "rank": "QUALITY_PURPLE",
    "img": "/image/game/genshin/avatar/UI_AvatarIcon_Dori.png"
  },
  {
    "id": 10000069,
    "name": "ティナリ",
    "rank": "QUALITY_ORANGE",
    "img": "/image/game/genshin/avatar/UI_AvatarIcon_Tighnari.png"
  },
  {
    "id": 10000070,
    "name": "ニィロウ",
    "rank": "QUALITY_ORANGE",
    "img": "/image/game/genshin/avatar/UI_AvatarIcon_Nilou.png"
  },
  {
    "id": 10000071,
    "name": "セノ",
    "rank": "QUALITY_ORANGE",
    "img": "/image/game/genshin/avatar/UI_AvatarIcon_Cyno.png"
  },
  {
    "id": 10000072,
    "name": "キャンディス",
    "rank": "QUALITY_PURPLE",
    "img": "/image/game/genshin/avatar/UI_AvatarIcon_Candace.png"
  },
  {
    "id": 10000073,
    "name": "ナヒーダ",
    "rank": "QUALITY_ORANGE",
    "img": "/image/game/genshin/avatar/UI_AvatarIcon_Nahida.png"
  },
  {
    "id": 10000074,
    "name": "レイラ",
    "rank": "QUALITY_PURPLE",
    "img": "/image/game/genshin/avatar/UI_AvatarIcon_Layla.png"
  },
  {
    "id": 10000075,
    "name": "放浪者",
    "rank": "QUALITY_ORANGE",
    "img": "/image/game/genshin/avatar/UI_AvatarIcon_Wanderer.png"
  },
  {
    "id": 10000076,
    "name": "ファルザン",
    "rank": "QUALITY_PURPLE",
    "img": "/image/game/genshin/avatar/UI_AvatarIcon_Faruzan.png"
  },
  {
    "id": 10000077,
    "name": "ヨォーヨ",
    "rank": "QUALITY_PURPLE",
    "img": "/image/game/genshin/avatar/UI_AvatarIcon_Yaoyao.png"
  },
  {
    "id": 10000078,
    "name": "アルハイゼン",
    "rank": "QUALITY_ORANGE",
    "img": "/image/game/genshin/avatar/UI_AvatarIcon_Alhatham.png"
  },
  {
    "id": 10000079,
    "name": "ディシア",
    "rank": "QUALITY_ORANGE",
    "img": "/image/game/genshin/avatar/UI_AvatarIcon_Dehya.png"
  },
  {
    "id": 10000080,
    "name": "ミカ",
    "rank": "QUALITY_PURPLE",
    "img": "/image/game/genshin/avatar/UI_AvatarIcon_Mika.png"
  },
  {
    "id": 10000081,
    "name": "カーヴェ",
    "rank": "QUALITY_PURPLE",
    "img": "/image/game/genshin/avatar/UI_AvatarIcon_Kaveh.png"
  },
  {
    "id": 10000082,
    "name": "白朮",
    "rank": "QUALITY_ORANGE",
    "img": "/image/game/genshin/avatar/UI_AvatarIcon_Baizhuer.png"
  },
  {
    "id": 10000083,
    "name": "リネット",
    "rank": "QUALITY_PURPLE",
    "img": "/image/game/genshin/avatar/UI_AvatarIcon_Linette.png"
  },
  {
    "id": 10000084,
    "name": "リネ",
    "rank": "QUALITY_ORANGE",
    "img": "/image/game/genshin/avatar/UI_AvatarIcon_Liney.png"
  },
  {
    "id": 10000085,
    "name": "フレミネ",
    "rank": "QUALITY_PURPLE",
    "img": "/image/game/genshin/avatar/UI_AvatarIcon_Freminet.png"
  }
]