[
  {
    "id": 11101,
    "name": "Kör Kılıç",
    "type_main": "ITEM_WEAPON",
    "type_sub": "WEAPON_SWORD_ONE_HAND",
    "rank": 1,
    "img": "/image/game/genshin/weapon/UI_EquipIcon_Sword_Blunt.png"
  },
  {
    "id": 11201,
    "name": "Gümüş Kılıç",
    "type_main": "ITEM_WEAPON",
    "type_sub": "WEAPON_SWORD_ONE_HAND",
    "rank": 2,
    "img": "/image/game/genshin/weapon/UI_EquipIcon_Sword_Silver.png"
  },
  {
    "id": 11301,
    "name": "Soğuk Çelik",
    "type_main": "ITEM_WEAPON",
    "type_sub": "WEAPON_SWORD_ONE_HAND",
    "rank": 3,
    "img": "/image/game/genshin/weapon/UI_EquipIcon_Sword_Steel.png"
  },
  {
    "id": 11302,
    "name": "Şafak Habercisi",
    "type_main": "ITEM_WEAPON",
    "type_sub": "WEAPON_SWORD_ONE_HAND",
    "rank": 3,
    "img": "/image/game/genshin/weapon/UI_EquipIcon_Sword_Dawn.png"
  },
  {
    "id": 11303,
    "name": "Gezginin Mahir Kılıcı",
    "type_main": "ITEM_WEAPON",
    "type_sub": "WEAPON_SWORD_ONE_HAND",
    "rank": 3,
    "img": "/image/game/genshin/weapon/UI_EquipIcon_Sword_Traveler.png"
  },
  {
    "id": 11304,
    "name": "Kara Demir Kılıç",
    "type_main": "ITEM_WEAPON",
    "type_sub": "WEAPON_SWORD_ONE_HAND",
    "rank": 3,
    "img": "/image/game/genshin/weapon/UI_EquipIcon_Sword_Darker.png"
  },
  {
    "id": 11305,
    "name": "Fileto Kılıcı",
    "type_main": "ITEM_WEAPON",
    "type_sub": "WEAPON_SWORD_ONE_HAND",
    "rank": 3,
    "img": "/image/game/genshin/weapon/UI_EquipIcon_Sword_Sashimi.png"
  },
  {
    "id": 11306,
    "name": "Gökbinicisi Kılıcı",
    "type_main": "ITEM_WEAPON",
    "type_sub": "WEAPON_SWORD_ONE_HAND",
    "rank": 3,
    "img": "/image/game/genshin/weapon/UI_EquipIcon_Sword_Mitsurugi.png"
  },
  {
    "id": 11401,
    "name": "Favonius Kılıcı",
    "type_main": "ITEM_WEAPON",
    "type_sub": "WEAPON_SWORD_ONE_HAND",
    "rank": 4,
    "img": "/image/game/genshin/weapon/UI_EquipIcon_Sword_Zephyrus.png"
  },
  {
    "id": 11402,
    "name": "Flüt",
    "type_main": "ITEM_WEAPON",
    "type_sub": "WEAPON_SWORD_ONE_HAND",
    "rank": 4,
    "img": "/image/game/genshin/weapon/UI_EquipIcon_Sword_Troupe.png"
  },
  {
    "id": 11403,
    "name": "Kurban Kılıcı",
    "type_main": "ITEM_WEAPON",
    "type_sub": "WEAPON_SWORD_ONE_HAND",
    "rank": 4,
    "img": "/image/game/genshin/weapon/UI_EquipIcon_Sword_Fossil.png"
  },
  {
    "id": 11404,
    "name": "Kraliyet Uzun Kılıcı",
    "type_main": "ITEM_WEAPON",
    "type_sub": "WEAPON_SWORD_ONE_HAND",
    "rank": 4,
    "img": "/image/game/genshin/weapon/UI_EquipIcon_Sword_Theocrat.png"
  },
  {
    "id": 11405,
    "name": "Aslan Kükreyişi",
    "type_main": "ITEM_WEAPON",
    "type_sub": "WEAPON_SWORD_ONE_HAND",
    "rank": 4,
    "img": "/image/game/genshin/weapon/UI_EquipIcon_Sword_Rockkiller.png"
  },
  {
    "id": 11406,
    "name": "Prototip: Garez",
    "type_main": "ITEM_WEAPON",
    "type_sub": "WEAPON_SWORD_ONE_HAND",
    "rank": 4,
    "img": "/image/game/genshin/weapon/UI_EquipIcon_Sword_Proto.png"
  },
  {
    "id": 11407,
    "name": "Demir Kılıç",
    "type_main": "ITEM_WEAPON",
    "type_sub": "WEAPON_SWORD_ONE_HAND",
    "rank": 4,
    "img": "/image/game/genshin/weapon/UI_EquipIcon_Sword_Exotic.png"
  },
  {
    "id": 11408,
    "name": "Kara Kaya Uzun Kılıcı",
    "type_main": "ITEM_WEAPON",
    "type_sub": "WEAPON_SWORD_ONE_HAND",
    "rank": 4,
    "img": "/image/game/genshin/weapon/UI_EquipIcon_Sword_Blackrock.png"
  },
  {
    "id": 11409,
    "name": "Kara Kılıç",
    "type_main": "ITEM_WEAPON",
    "type_sub": "WEAPON_SWORD_ONE_HAND",
    "rank": 4,
    "img": "/image/game/genshin/weapon/UI_EquipIcon_Sword_Bloodstained.png"
  },
  {
    "id": 11410,
    "name": "Gece Parıltısı",
    "type_main": "ITEM_WEAPON",
    "type_sub": "WEAPON_SWORD_ONE_HAND",
    "rank": 4,
    "img": "/image/game/genshin/weapon/UI_EquipIcon_Sword_Outlaw.png"
  },
  {
    "id": 11411,
    "name": "N/A",
    "type_main": "ITEM_WEAPON",
    "type_sub": "WEAPON_SWORD_ONE_HAND",
    "rank": 4,
    "img": "/image/game/genshin/weapon/UI_EquipIcon_Sword_Blunt.png"
  },
  {
    "id": 11412,
    "name": "Zuhur Kılıcı",
    "type_main": "ITEM_WEAPON",
    "type_sub": "WEAPON_SWORD_ONE_HAND",
    "rank": 4,
    "img": "/image/game/genshin/weapon/UI_EquipIcon_Sword_Psalmus.png"
  },
  {
    "id": 11413,
    "name": "Yıkıcı Arzu",
    "type_main": "ITEM_WEAPON",
    "type_sub": "WEAPON_SWORD_ONE_HAND",
    "rank": 4,
    "img": "/image/game/genshin/weapon/UI_EquipIcon_Sword_Magnum.png"
  },
  {
    "id": 11414,
    "name": "Amenoma Kageuchi",
    "type_main": "ITEM_WEAPON",
    "type_sub": "WEAPON_SWORD_ONE_HAND",
    "rank": 4,
    "img": "/image/game/genshin/weapon/UI_EquipIcon_Sword_Bakufu.png"
  },
  {
    "id": 11415,
    "name": "Sülüğen Kılıç",
    "type_main": "ITEM_WEAPON",
    "type_sub": "WEAPON_SWORD_ONE_HAND",
    "rank": 4,
    "img": "/image/game/genshin/weapon/UI_EquipIcon_Sword_Opus.png"
  },
  {
    "id": 11416,
    "name": "Kagotsurube Isshin",
    "type_main": "ITEM_WEAPON",
    "type_sub": "WEAPON_SWORD_ONE_HAND",
    "rank": 4,
    "img": "/image/game/genshin/weapon/UI_EquipIcon_Sword_Youtou.png"
  },
  {
    "id": 11417,
    "name": "İç Kabuk Kılıcı",
    "type_main": "ITEM_WEAPON",
    "type_sub": "WEAPON_SWORD_ONE_HAND",
    "rank": 4,
    "img": "/image/game/genshin/weapon/UI_EquipIcon_Sword_Arakalari.png"
  },
  {
    "id": 11418,
    "name": "Xiphos'un Ay Işığı",
    "type_main": "ITEM_WEAPON",
    "type_sub": "WEAPON_SWORD_ONE_HAND",
    "rank": 4,
    "img": "/image/game/genshin/weapon/UI_EquipIcon_Sword_Pleroma.png"
  },
  {
    "id": 11419,
    "name": "Değerli Isshin Kılıcı",
    "type_main": "ITEM_WEAPON",
    "type_sub": "WEAPON_SWORD_ONE_HAND",
    "rank": 4,
    "img": "/image/game/genshin/weapon/UI_EquipIcon_Sword_YoutouEnchanted.png"
  },
  {
    "id": 11420,
    "name": "Değerli Isshin Kılıcı",
    "type_main": "ITEM_WEAPON",
    "type_sub": "WEAPON_SWORD_ONE_HAND",
    "rank": 4,
    "img": "/image/game/genshin/weapon/UI_EquipIcon_Sword_YoutouShattered.png"
  },
  {
    "id": 11421,
    "name": "Değerli Isshin Kılıcı",
    "type_main": "ITEM_WEAPON",
    "type_sub": "WEAPON_SWORD_ONE_HAND",
    "rank": 4,
    "img": "/image/game/genshin/weapon/UI_EquipIcon_Sword_YoutouEnchanted.png"
  },
  {
    "id": 11422,
    "name": "Toukabou Shigure",
    "type_main": "ITEM_WEAPON",
    "type_sub": "WEAPON_SWORD_ONE_HAND",
    "rank": 4,
    "img": "/image/game/genshin/weapon/UI_EquipIcon_Sword_Kasabouzu.png"
  },
  {
    "id": 11424,
    "name": "Kurt Dişi",
    "type_main": "ITEM_WEAPON",
    "type_sub": "WEAPON_SWORD_ONE_HAND",
    "rank": 4,
    "img": "/image/game/genshin/weapon/UI_EquipIcon_Sword_Boreas.png"
  },
  {
    "id": 11425,
    "name": "Derinliklerin Sonu",
    "type_main": "ITEM_WEAPON",
    "type_sub": "WEAPON_SWORD_ONE_HAND",
    "rank": 4,
    "img": "/image/game/genshin/weapon/UI_EquipIcon_Sword_Vorpal.png"
  },
  {
    "id": 11426,
    "name": "Cendre Nehri Kayıkçısı",
    "type_main": "ITEM_WEAPON",
    "type_sub": "WEAPON_SWORD_ONE_HAND",
    "rank": 4,
    "img": "/image/game/genshin/weapon/UI_EquipIcon_Sword_Machination.png"
  },
  {
    "id": 11501,
    "name": "Favonia Kartalı",
    "type_main": "ITEM_WEAPON",
    "type_sub": "WEAPON_SWORD_ONE_HAND",
    "rank": 5,
    "img": "/image/game/genshin/weapon/UI_EquipIcon_Sword_Falcon.png"
  },
  {
    "id": 11502,
    "name": "Göklerin Kılıcı",
    "type_main": "ITEM_WEAPON",
    "type_sub": "WEAPON_SWORD_ONE_HAND",
    "rank": 5,
    "img": "/image/game/genshin/weapon/UI_EquipIcon_Sword_Dvalin.png"
  },
  {
    "id": 11503,
    "name": "Özgürlük Yemini",
    "type_main": "ITEM_WEAPON",
    "type_sub": "WEAPON_SWORD_ONE_HAND",
    "rank": 5,
    "img": "/image/game/genshin/weapon/UI_EquipIcon_Sword_Widsith.png"
  },
  {
    "id": 11504,
    "name": "Zirvekesen",
    "type_main": "ITEM_WEAPON",
    "type_sub": "WEAPON_SWORD_ONE_HAND",
    "rank": 5,
    "img": "/image/game/genshin/weapon/UI_EquipIcon_Sword_Kunwu.png"
  },
  {
    "id": 11505,
    "name": "Ezeli Yeşim Kılıcı",
    "type_main": "ITEM_WEAPON",
    "type_sub": "WEAPON_SWORD_ONE_HAND",
    "rank": 5,
    "img": "/image/game/genshin/weapon/UI_EquipIcon_Sword_Morax.png"
  },
  {
    "id": 11506,
    "name": "N/A",
    "type_main": "ITEM_WEAPON",
    "type_sub": "WEAPON_SWORD_ONE_HAND",
    "rank": 5,
    "img": "/image/game/genshin/weapon/UI_EquipIcon_Sword_Blunt.png"
  },
  {
    "id": 11507,
    "name": "N/A",
    "type_main": "ITEM_WEAPON",
    "type_sub": "WEAPON_SWORD_ONE_HAND",
    "rank": 5,
    "img": "/image/game/genshin/weapon/UI_EquipIcon_Sword_Blunt.png"
  },
  {
    "id": 11508,
    "name": "N/A",
    "type_main": "ITEM_WEAPON",
    "type_sub": "WEAPON_SWORD_ONE_HAND",
    "rank": 5,
    "img": "/image/game/genshin/weapon/UI_EquipIcon_Sword_Blunt.png"
  },
  {
    "id": 11509,
    "name": "Yeniden Dövülmüş Siskesen",
    "type_main": "ITEM_WEAPON",
    "type_sub": "WEAPON_SWORD_ONE_HAND",
    "rank": 5,
    "img": "/image/game/genshin/weapon/UI_EquipIcon_Sword_Narukami.png"
  },
  {
    "id": 11510,
    "name": "Haran Geppaku Futsu",
    "type_main": "ITEM_WEAPON",
    "type_sub": "WEAPON_SWORD_ONE_HAND",
    "rank": 5,
    "img": "/image/game/genshin/weapon/UI_EquipIcon_Sword_Amenoma.png"
  },
  {
    "id": 11511,
    "name": "Khaj-Nisut Anahtarı",
    "type_main": "ITEM_WEAPON",
    "type_sub": "WEAPON_SWORD_ONE_HAND",
    "rank": 5,
    "img": "/image/game/genshin/weapon/UI_EquipIcon_Sword_Deshret.png"
  },
  {
    "id": 11512,
    "name": "Yaprak Kesen Işık",
    "type_main": "ITEM_WEAPON",
    "type_sub": "WEAPON_SWORD_ONE_HAND",
    "rank": 5,
    "img": "/image/game/genshin/weapon/UI_EquipIcon_Sword_Ayus.png"
  },
  {
    "id": 12101,
    "name": "Darmaduman Büyük Kılıcı",
    "type_main": "ITEM_WEAPON",
    "type_sub": "WEAPON_CLAYMORE",
    "rank": 1,
    "img": "/image/game/genshin/weapon/UI_EquipIcon_Claymore_Aniki.png"
  },
  {
    "id": 12201,
    "name": "İhtiyar Lejyonerin Dostu",
    "type_main": "ITEM_WEAPON",
    "type_sub": "WEAPON_CLAYMORE",
    "rank": 2,
    "img": "/image/game/genshin/weapon/UI_EquipIcon_Claymore_Oyaji.png"
  },
  {
    "id": 12301,
    "name": "Demir Gölge",
    "type_main": "ITEM_WEAPON",
    "type_sub": "WEAPON_CLAYMORE",
    "rank": 3,
    "img": "/image/game/genshin/weapon/UI_EquipIcon_Claymore_Glaive.png"
  },
  {
    "id": 12302,
    "name": "Kanlı Büyük Kılıç",
    "type_main": "ITEM_WEAPON",
    "type_sub": "WEAPON_CLAYMORE",
    "rank": 3,
    "img": "/image/game/genshin/weapon/UI_EquipIcon_Claymore_Siegfry.png"
  },
  {
    "id": 12303,
    "name": "Beyaz Demirden Büyük Kılıç",
    "type_main": "ITEM_WEAPON",
    "type_sub": "WEAPON_CLAYMORE",
    "rank": 3,
    "img": "/image/game/genshin/weapon/UI_EquipIcon_Claymore_Tin.png"
  },
  {
    "id": 12304,
    "name": "Kuvars",
    "type_main": "ITEM_WEAPON",
    "type_sub": "WEAPON_CLAYMORE",
    "rank": 3,
    "img": "/image/game/genshin/weapon/UI_EquipIcon_Claymore_Quartz.png"
  },
  {
    "id": 12305,
    "name": "İkna Sopası",
    "type_main": "ITEM_WEAPON",
    "type_sub": "WEAPON_CLAYMORE",
    "rank": 3,
    "img": "/image/game/genshin/weapon/UI_EquipIcon_Claymore_Reasoning.png"
  },
  {
    "id": 12306,
    "name": "Gökbinicisi Büyük Kılıcı",
    "type_main": "ITEM_WEAPON",
    "type_sub": "WEAPON_CLAYMORE",
    "rank": 3,
    "img": "/image/game/genshin/weapon/UI_EquipIcon_Claymore_Mitsurugi.png"
  },
  {
    "id": 12401,
    "name": "Favonius Büyük Kılıcı",
    "type_main": "ITEM_WEAPON",
    "type_sub": "WEAPON_CLAYMORE",
    "rank": 4,
    "img": "/image/game/genshin/weapon/UI_EquipIcon_Claymore_Zephyrus.png"
  },
  {
    "id": 12402,
    "name": "Çan",
    "type_main": "ITEM_WEAPON",
    "type_sub": "WEAPON_CLAYMORE",
    "rank": 4,
    "img": "/image/game/genshin/weapon/UI_EquipIcon_Claymore_Troupe.png"
  },
  {
    "id": 12403,
    "name": "Kurban Büyük Kılıcı",
    "type_main": "ITEM_WEAPON",
    "type_sub": "WEAPON_CLAYMORE",
    "rank": 4,
    "img": "/image/game/genshin/weapon/UI_EquipIcon_Claymore_Fossil.png"
  },
  {
    "id": 12404,
    "name": "Kraliyet Büyük Kılıcı",
    "type_main": "ITEM_WEAPON",
    "type_sub": "WEAPON_CLAYMORE",
    "rank": 4,
    "img": "/image/game/genshin/weapon/UI_EquipIcon_Claymore_Theocrat.png"
  },
  {
    "id": 12405,
    "name": "Yağmurkesen",
    "type_main": "ITEM_WEAPON",
    "type_sub": "WEAPON_CLAYMORE",
    "rank": 4,
    "img": "/image/game/genshin/weapon/UI_EquipIcon_Claymore_Perdue.png"
  },
  {
    "id": 12406,
    "name": "Prototip: Arkaik",
    "type_main": "ITEM_WEAPON",
    "type_sub": "WEAPON_CLAYMORE",
    "rank": 4,
    "img": "/image/game/genshin/weapon/UI_EquipIcon_Claymore_Proto.png"
  },
  {
    "id": 12407,
    "name": "Akkörelten",
    "type_main": "ITEM_WEAPON",
    "type_sub": "WEAPON_CLAYMORE",
    "rank": 4,
    "img": "/image/game/genshin/weapon/UI_EquipIcon_Claymore_Exotic.png"
  },
  {
    "id": 12408,
    "name": "Kara Kaya Kılıcı",
    "type_main": "ITEM_WEAPON",
    "type_sub": "WEAPON_CLAYMORE",
    "rank": 4,
    "img": "/image/game/genshin/weapon/UI_EquipIcon_Claymore_Blackrock.png"
  },
  {
    "id": 12409,
    "name": "Yılansırt",
    "type_main": "ITEM_WEAPON",
    "type_sub": "WEAPON_CLAYMORE",
    "rank": 4,
    "img": "/image/game/genshin/weapon/UI_EquipIcon_Claymore_Kione.png"
  },
  {
    "id": 12410,
    "name": "Taş Kılıç",
    "type_main": "ITEM_WEAPON",
    "type_sub": "WEAPON_CLAYMORE",
    "rank": 4,
    "img": "/image/game/genshin/weapon/UI_EquipIcon_Claymore_Lapis.png"
  },
  {
    "id": 12411,
    "name": "Karlı Gümüş Yıldız",
    "type_main": "ITEM_WEAPON",
    "type_sub": "WEAPON_CLAYMORE",
    "rank": 4,
    "img": "/image/game/genshin/weapon/UI_EquipIcon_Claymore_Dragonfell.png"
  },
  {
    "id": 12412,
    "name": "Denizlerin Efendisi",
    "type_main": "ITEM_WEAPON",
    "type_sub": "WEAPON_CLAYMORE",
    "rank": 4,
    "img": "/image/game/genshin/weapon/UI_EquipIcon_Claymore_MillenniaTuna.png"
  },
  {
    "id": 12414,
    "name": "Katsuragikiri Nagamasa",
    "type_main": "ITEM_WEAPON",
    "type_sub": "WEAPON_CLAYMORE",
    "rank": 4,
    "img": "/image/game/genshin/weapon/UI_EquipIcon_Claymore_Bakufu.png"
  },
  {
    "id": 12415,
    "name": "Makhaira Deniz Yeşili",
    "type_main": "ITEM_WEAPON",
    "type_sub": "WEAPON_CLAYMORE",
    "rank": 4,
    "img": "/image/game/genshin/weapon/UI_EquipIcon_Claymore_Pleroma.png"
  },
  {
    "id": 12416,
    "name": "Akuou'nun Kılıcı",
    "type_main": "ITEM_WEAPON",
    "type_sub": "WEAPON_CLAYMORE",
    "rank": 4,
    "img": "/image/game/genshin/weapon/UI_EquipIcon_Claymore_Maria.png"
  },
  {
    "id": 12417,
    "name": "Orman Nişanı",
    "type_main": "ITEM_WEAPON",
    "type_sub": "WEAPON_CLAYMORE",
    "rank": 4,
    "img": "/image/game/genshin/weapon/UI_EquipIcon_Claymore_Arakalari.png"
  },
  {
    "id": 12418,
    "name": "Zırhlı Çiçek",
    "type_main": "ITEM_WEAPON",
    "type_sub": "WEAPON_CLAYMORE",
    "rank": 4,
    "img": "/image/game/genshin/weapon/UI_EquipIcon_Claymore_Fleurfair.png"
  },
  {
    "id": 12424,
    "name": "Konuşma Çubuğu",
    "type_main": "ITEM_WEAPON",
    "type_sub": "WEAPON_CLAYMORE",
    "rank": 4,
    "img": "/image/game/genshin/weapon/UI_EquipIcon_Claymore_BeastTamer.png"
  },
  {
    "id": 12425,
    "name": "Dalgaların Gölgesi",
    "type_main": "ITEM_WEAPON",
    "type_sub": "WEAPON_CLAYMORE",
    "rank": 4,
    "img": "/image/game/genshin/weapon/UI_EquipIcon_Claymore_Vorpal.png"
  },
  {
    "id": 12501,
    "name": "Göklerin Gururu",
    "type_main": "ITEM_WEAPON",
    "type_sub": "WEAPON_CLAYMORE",
    "rank": 5,
    "img": "/image/game/genshin/weapon/UI_EquipIcon_Claymore_Dvalin.png"
  },
  {
    "id": 12502,
    "name": "Kurdun Mezar Taşı",
    "type_main": "ITEM_WEAPON",
    "type_sub": "WEAPON_CLAYMORE",
    "rank": 5,
    "img": "/image/game/genshin/weapon/UI_EquipIcon_Claymore_Wolfmound.png"
  },
  {
    "id": 12503,
    "name": "Kırık Çamların Şarkısı",
    "type_main": "ITEM_WEAPON",
    "type_sub": "WEAPON_CLAYMORE",
    "rank": 5,
    "img": "/image/game/genshin/weapon/UI_EquipIcon_Claymore_Widsith.png"
  },
  {
    "id": 12504,
    "name": "Kötülüksavar",
    "type_main": "ITEM_WEAPON",
    "type_sub": "WEAPON_CLAYMORE",
    "rank": 5,
    "img": "/image/game/genshin/weapon/UI_EquipIcon_Claymore_Kunwu.png"
  },
  {
    "id": 12505,
    "name": "N/A",
    "type_main": "ITEM_WEAPON",
    "type_sub": "WEAPON_CLAYMORE",
    "rank": 5,
    "img": "/image/game/genshin/weapon/UI_EquipIcon_Claymore_Aniki.png"
  },
  {
    "id": 12506,
    "name": "N/A",
    "type_main": "ITEM_WEAPON",
    "type_sub": "WEAPON_CLAYMORE",
    "rank": 5,
    "img": "/image/game/genshin/weapon/UI_EquipIcon_Claymore_Aniki.png"
  },
  {
    "id": 12508,
    "name": "N/A",
    "type_main": "ITEM_WEAPON",
    "type_sub": "WEAPON_CLAYMORE",
    "rank": 5,
    "img": "/image/game/genshin/weapon/UI_EquipIcon_Claymore_Aniki.png"
  },
  {
    "id": 12509,
    "name": "N/A",
    "type_main": "ITEM_WEAPON",
    "type_sub": "WEAPON_CLAYMORE",
    "rank": 5,
    "img": "/image/game/genshin/weapon/UI_EquipIcon_Claymore_Aniki.png"
  },
  {
    "id": 12510,
    "name": "Taşkıran Kızılboynuz",
    "type_main": "ITEM_WEAPON",
    "type_sub": "WEAPON_CLAYMORE",
    "rank": 5,
    "img": "/image/game/genshin/weapon/UI_EquipIcon_Claymore_Itadorimaru.png"
  },
  {
    "id": 12511,
    "name": "Kızıl Çölün İradesi",
    "type_main": "ITEM_WEAPON",
    "type_sub": "WEAPON_CLAYMORE",
    "rank": 5,
    "img": "/image/game/genshin/weapon/UI_EquipIcon_Claymore_Deshret.png"
  },
  {
    "id": 13101,
    "name": "Acemi Koruması",
    "type_main": "ITEM_WEAPON",
    "type_sub": "WEAPON_POLE",
    "rank": 1,
    "img": "/image/game/genshin/weapon/UI_EquipIcon_Pole_Gewalt.png"
  },
  {
    "id": 13201,
    "name": "Demir Nokta",
    "type_main": "ITEM_WEAPON",
    "type_sub": "WEAPON_POLE",
    "rank": 2,
    "img": "/image/game/genshin/weapon/UI_EquipIcon_Pole_Rod.png"
  },
  {
    "id": 13301,
    "name": "Beyaz Püskül",
    "type_main": "ITEM_WEAPON",
    "type_sub": "WEAPON_POLE",
    "rank": 3,
    "img": "/image/game/genshin/weapon/UI_EquipIcon_Pole_Ruby.png"
  },
  {
    "id": 13302,
    "name": "Baltalı Mızrak",
    "type_main": "ITEM_WEAPON",
    "type_sub": "WEAPON_POLE",
    "rank": 3,
    "img": "/image/game/genshin/weapon/UI_EquipIcon_Pole_Halberd.png"
  },
  {
    "id": 13303,
    "name": "Siyah Püskül",
    "type_main": "ITEM_WEAPON",
    "type_sub": "WEAPON_POLE",
    "rank": 3,
    "img": "/image/game/genshin/weapon/UI_EquipIcon_Pole_Noire.png"
  },
  {
    "id": 13304,
    "name": "Bayrak Direği",
    "type_main": "ITEM_WEAPON",
    "type_sub": "WEAPON_POLE",
    "rank": 3,
    "img": "/image/game/genshin/weapon/UI_EquipIcon_Pole_Flagpole.png"
  },
  {
    "id": 13401,
    "name": "Ejder Laneti",
    "type_main": "ITEM_WEAPON",
    "type_sub": "WEAPON_POLE",
    "rank": 4,
    "img": "/image/game/genshin/weapon/UI_EquipIcon_Pole_Stardust.png"
  },
  {
    "id": 13402,
    "name": "Prototip: Yıldız Parıltısı",
    "type_main": "ITEM_WEAPON",
    "type_sub": "WEAPON_POLE",
    "rank": 4,
    "img": "/image/game/genshin/weapon/UI_EquipIcon_Pole_Proto.png"
  },
  {
    "id": 13403,
    "name": "Hilal Mızrak",
    "type_main": "ITEM_WEAPON",
    "type_sub": "WEAPON_POLE",
    "rank": 4,
    "img": "/image/game/genshin/weapon/UI_EquipIcon_Pole_Exotic.png"
  },
  {
    "id": 13404,
    "name": "Kara Kaya Kargısı",
    "type_main": "ITEM_WEAPON",
    "type_sub": "WEAPON_POLE",
    "rank": 4,
    "img": "/image/game/genshin/weapon/UI_EquipIcon_Pole_Blackrock.png"
  },
  {
    "id": 13405,
    "name": "Ölümsaçan",
    "type_main": "ITEM_WEAPON",
    "type_sub": "WEAPON_POLE",
    "rank": 4,
    "img": "/image/game/genshin/weapon/UI_EquipIcon_Pole_Gladiator.png"
  },
  {
    "id": 13406,
    "name": "Taş Mızrak",
    "type_main": "ITEM_WEAPON",
    "type_sub": "WEAPON_POLE",
    "rank": 4,
    "img": "/image/game/genshin/weapon/UI_EquipIcon_Pole_Lapis.png"
  },
  {
    "id": 13407,
    "name": "Favonius Mızrağı",
    "type_main": "ITEM_WEAPON",
    "type_sub": "WEAPON_POLE",
    "rank": 4,
    "img": "/image/game/genshin/weapon/UI_EquipIcon_Pole_Zephyrus.png"
  },
  {
    "id": 13408,
    "name": "Kraliyet Mızrağı",
    "type_main": "ITEM_WEAPON",
    "type_sub": "WEAPON_POLE",
    "rank": 4,
    "img": "/image/game/genshin/weapon/UI_EquipIcon_Pole_Theocrat.png"
  },
  {
    "id": 13409,
    "name": "Ejdersırtı Mızrak",
    "type_main": "ITEM_WEAPON",
    "type_sub": "WEAPON_POLE",
    "rank": 4,
    "img": "/image/game/genshin/weapon/UI_EquipIcon_Pole_Everfrost.png"
  },
  {
    "id": 13414,
    "name": "Kitain Haç Mızrağı",
    "type_main": "ITEM_WEAPON",
    "type_sub": "WEAPON_POLE",
    "rank": 4,
    "img": "/image/game/genshin/weapon/UI_EquipIcon_Pole_Bakufu.png"
  },
  {
    "id": 13415,
    "name": "Yakalayan Mızrak",
    "type_main": "ITEM_WEAPON",
    "type_sub": "WEAPON_POLE",
    "rank": 4,
    "img": "/image/game/genshin/weapon/UI_EquipIcon_Pole_Mori.png"
  },
  {
    "id": 13416,
    "name": "Dalgakesen Yüzgeci",
    "type_main": "ITEM_WEAPON",
    "type_sub": "WEAPON_POLE",
    "rank": 4,
    "img": "/image/game/genshin/weapon/UI_EquipIcon_Pole_Maria.png"
  },
  {
    "id": 13417,
    "name": "Mehtap Delen",
    "type_main": "ITEM_WEAPON",
    "type_sub": "WEAPON_POLE",
    "rank": 4,
    "img": "/image/game/genshin/weapon/UI_EquipIcon_Pole_Arakalari.png"
  },
  {
    "id": 13419,
    "name": "Habercinin Rüzgar Mızrağı",
    "type_main": "ITEM_WEAPON",
    "type_sub": "WEAPON_POLE",
    "rank": 4,
    "img": "/image/game/genshin/weapon/UI_EquipIcon_Pole_Windvane.png"
  },
  {
    "id": 13424,
    "name": "Fiyortların Türküsü",
    "type_main": "ITEM_WEAPON",
    "type_sub": "WEAPON_POLE",
    "rank": 4,
    "img": "/image/game/genshin/weapon/UI_EquipIcon_Pole_Shanty.png"
  },
  {
    "id": 13425,
    "name": "Meşru Mükafat",
    "type_main": "ITEM_WEAPON",
    "type_sub": "WEAPON_POLE",
    "rank": 4,
    "img": "/image/game/genshin/weapon/UI_EquipIcon_Pole_Vorpal.png"
  },
  {
    "id": 13501,
    "name": "Homa'nın Asası",
    "type_main": "ITEM_WEAPON",
    "type_sub": "WEAPON_POLE",
    "rank": 5,
    "img": "/image/game/genshin/weapon/UI_EquipIcon_Pole_Homa.png"
  },
  {
    "id": 13502,
    "name": "Göklerin Omurgası",
    "type_main": "ITEM_WEAPON",
    "type_sub": "WEAPON_POLE",
    "rank": 5,
    "img": "/image/game/genshin/weapon/UI_EquipIcon_Pole_Dvalin.png"
  },
  {
    "id": 13503,
    "name": "N/A",
    "type_main": "ITEM_WEAPON",
    "type_sub": "WEAPON_POLE",
    "rank": 5,
    "img": "/image/game/genshin/weapon/UI_EquipIcon_Pole_Gewalt.png"
  },
  {
    "id": 13504,
    "name": "Girdap Söndüren",
    "type_main": "ITEM_WEAPON",
    "type_sub": "WEAPON_POLE",
    "rank": 5,
    "img": "/image/game/genshin/weapon/UI_EquipIcon_Pole_Kunwu.png"
  },
  {
    "id": 13505,
    "name": "Ezeli Yeşim Kanatlı Mızrak",
    "type_main": "ITEM_WEAPON",
    "type_sub": "WEAPON_POLE",
    "rank": 5,
    "img": "/image/game/genshin/weapon/UI_EquipIcon_Pole_Morax.png"
  },
  {
    "id": 13506,
    "name": "N/A",
    "type_main": "ITEM_WEAPON",
    "type_sub": "WEAPON_POLE",
    "rank": 5,
    "img": "/image/game/genshin/weapon/UI_EquipIcon_Pole_Gewalt.png"
  },
  {
    "id": 13507,
    "name": "Bela Söndüren",
    "type_main": "ITEM_WEAPON",
    "type_sub": "WEAPON_POLE",
    "rank": 5,
    "img": "/image/game/genshin/weapon/UI_EquipIcon_Pole_Santika.png"
  },
  {
    "id": 13509,
    "name": "Hapseden Yıldırım",
    "type_main": "ITEM_WEAPON",
    "type_sub": "WEAPON_POLE",
    "rank": 5,
    "img": "/image/game/genshin/weapon/UI_EquipIcon_Pole_Narukami.png"
  },
  {
    "id": 13511,
    "name": "Kızıl Kum Asası",
    "type_main": "ITEM_WEAPON",
    "type_sub": "WEAPON_POLE",
    "rank": 5,
    "img": "/image/game/genshin/weapon/UI_EquipIcon_Pole_Deshret.png"
  },
  {
    "id": 14101,
    "name": "Çırağın Notları",
    "type_main": "ITEM_WEAPON",
    "type_sub": "WEAPON_CATALYST",
    "rank": 1,
    "img": "/image/game/genshin/weapon/UI_EquipIcon_Catalyst_Apprentice.png"
  },
  {
    "id": 14201,
    "name": "Büyü Cep Kitabı",
    "type_main": "ITEM_WEAPON",
    "type_sub": "WEAPON_CATALYST",
    "rank": 2,
    "img": "/image/game/genshin/weapon/UI_EquipIcon_Catalyst_Pocket.png"
  },
  {
    "id": 14301,
    "name": "Büyü Rehberi",
    "type_main": "ITEM_WEAPON",
    "type_sub": "WEAPON_CATALYST",
    "rank": 3,
    "img": "/image/game/genshin/weapon/UI_EquipIcon_Catalyst_Intro.png"
  },
  {
    "id": 14302,
    "name": "Ejder Katillerinin Serüvenleri",
    "type_main": "ITEM_WEAPON",
    "type_sub": "WEAPON_CATALYST",
    "rank": 3,
    "img": "/image/game/genshin/weapon/UI_EquipIcon_Catalyst_Pulpfic.png"
  },
  {
    "id": 14303,
    "name": "Uhrevi Hikaye",
    "type_main": "ITEM_WEAPON",
    "type_sub": "WEAPON_CATALYST",
    "rank": 3,
    "img": "/image/game/genshin/weapon/UI_EquipIcon_Catalyst_Lightnov.png"
  },
  {
    "id": 14304,
    "name": "Zümrüt Küre",
    "type_main": "ITEM_WEAPON",
    "type_sub": "WEAPON_CATALYST",
    "rank": 3,
    "img": "/image/game/genshin/weapon/UI_EquipIcon_Catalyst_Jade.png"
  },
  {
    "id": 14305,
    "name": "İkiz Yeşimtaşı",
    "type_main": "ITEM_WEAPON",
    "type_sub": "WEAPON_CATALYST",
    "rank": 3,
    "img": "/image/game/genshin/weapon/UI_EquipIcon_Catalyst_Phoney.png"
  },
  {
    "id": 14306,
    "name": "Kehribar Boncuk",
    "type_main": "ITEM_WEAPON",
    "type_sub": "WEAPON_CATALYST",
    "rank": 3,
    "img": "/image/game/genshin/weapon/UI_EquipIcon_Catalyst_Amber.png"
  },
  {
    "id": 14401,
    "name": "Favonius Kanunları",
    "type_main": "ITEM_WEAPON",
    "type_sub": "WEAPON_CATALYST",
    "rank": 4,
    "img": "/image/game/genshin/weapon/UI_EquipIcon_Catalyst_Zephyrus.png"
  },
  {
    "id": 14402,
    "name": "Göçebenin Nota Kitabı",
    "type_main": "ITEM_WEAPON",
    "type_sub": "WEAPON_CATALYST",
    "rank": 4,
    "img": "/image/game/genshin/weapon/UI_EquipIcon_Catalyst_Troupe.png"
  },
  {
    "id": 14403,
    "name": "Kurban Kanunları",
    "type_main": "ITEM_WEAPON",
    "type_sub": "WEAPON_CATALYST",
    "rank": 4,
    "img": "/image/game/genshin/weapon/UI_EquipIcon_Catalyst_Fossil.png"
  },
  {
    "id": 14404,
    "name": "Kraliyet Büyü Kitabı",
    "type_main": "ITEM_WEAPON",
    "type_sub": "WEAPON_CATALYST",
    "rank": 4,
    "img": "/image/game/genshin/weapon/UI_EquipIcon_Catalyst_Theocrat.png"
  },
  {
    "id": 14405,
    "name": "Güneş İncisi",
    "type_main": "ITEM_WEAPON",
    "type_sub": "WEAPON_CATALYST",
    "rank": 4,
    "img": "/image/game/genshin/weapon/UI_EquipIcon_Catalyst_Resurrection.png"
  },
  {
    "id": 14406,
    "name": "Prototip: Kehribar",
    "type_main": "ITEM_WEAPON",
    "type_sub": "WEAPON_CATALYST",
    "rank": 4,
    "img": "/image/game/genshin/weapon/UI_EquipIcon_Catalyst_Proto.png"
  },
  {
    "id": 14407,
    "name": "Deniz Haritası",
    "type_main": "ITEM_WEAPON",
    "type_sub": "WEAPON_CATALYST",
    "rank": 4,
    "img": "/image/game/genshin/weapon/UI_EquipIcon_Catalyst_Exotic.png"
  },
  {
    "id": 14408,
    "name": "Kara Kaya Akiği",
    "type_main": "ITEM_WEAPON",
    "type_sub": "WEAPON_CATALYST",
    "rank": 4,
    "img": "/image/game/genshin/weapon/UI_EquipIcon_Catalyst_Blackrock.png"
  },
  {
    "id": 14409,
    "name": "Algı Gözü",
    "type_main": "ITEM_WEAPON",
    "type_sub": "WEAPON_CATALYST",
    "rank": 4,
    "img": "/image/game/genshin/weapon/UI_EquipIcon_Catalyst_Truelens.png"
  },
  {
    "id": 14410,
    "name": "Şarap ve Şarkı",
    "type_main": "ITEM_WEAPON",
    "type_sub": "WEAPON_CATALYST",
    "rank": 4,
    "img": "/image/game/genshin/weapon/UI_EquipIcon_Catalyst_Outlaw.png"
  },
  {
    "id": 14411,
    "name": "N/A",
    "type_main": "ITEM_WEAPON",
    "type_sub": "WEAPON_CATALYST",
    "rank": 4,
    "img": "/image/game/genshin/weapon/UI_EquipIcon_Catalyst_Apprentice.png"
  },
  {
    "id": 14412,
    "name": "Buzözü Meyvesi",
    "type_main": "ITEM_WEAPON",
    "type_sub": "WEAPON_CATALYST",
    "rank": 4,
    "img": "/image/game/genshin/weapon/UI_EquipIcon_Catalyst_Everfrost.png"
  },
  {
    "id": 14413,
    "name": "Dodoko Masalları",
    "type_main": "ITEM_WEAPON",
    "type_sub": "WEAPON_CATALYST",
    "rank": 4,
    "img": "/image/game/genshin/weapon/UI_EquipIcon_Catalyst_Ludiharpastum.png"
  },
  {
    "id": 14414,
    "name": "Hakushin Yüzüğü",
    "type_main": "ITEM_WEAPON",
    "type_sub": "WEAPON_CATALYST",
    "rank": 4,
    "img": "/image/game/genshin/weapon/UI_EquipIcon_Catalyst_Bakufu.png"
  },
  {
    "id": 14415,
    "name": "Yeminli Göz",
    "type_main": "ITEM_WEAPON",
    "type_sub": "WEAPON_CATALYST",
    "rank": 4,
    "img": "/image/game/genshin/weapon/UI_EquipIcon_Catalyst_Jyanome.png"
  },
  {
    "id": 14416,
    "name": "Serseri Akşam Yıldızı",
    "type_main": "ITEM_WEAPON",
    "type_sub": "WEAPON_CATALYST",
    "rank": 4,
    "img": "/image/game/genshin/weapon/UI_EquipIcon_Catalyst_Pleroma.png"
  },
  {
    "id": 14417,
    "name": "Doygunluk Meyvesi",
    "type_main": "ITEM_WEAPON",
    "type_sub": "WEAPON_CATALYST",
    "rank": 4,
    "img": "/image/game/genshin/weapon/UI_EquipIcon_Catalyst_Arakalari.png"
  },
  {
    "id": 14424,
    "name": "Kurban Yeşimi",
    "type_main": "ITEM_WEAPON",
    "type_sub": "WEAPON_CATALYST",
    "rank": 4,
    "img": "/image/game/genshin/weapon/UI_EquipIcon_Catalyst_Yue.png"
  },
  {
    "id": 14425,
    "name": "Saflığın Akışı",
    "type_main": "ITEM_WEAPON",
    "type_sub": "WEAPON_CATALYST",
    "rank": 4,
    "img": "/image/game/genshin/weapon/UI_EquipIcon_Catalyst_Vorpal.png"
  },
  {
    "id": 14501,
    "name": "Göklerin Atlası",
    "type_main": "ITEM_WEAPON",
    "type_sub": "WEAPON_CATALYST",
    "rank": 5,
    "img": "/image/game/genshin/weapon/UI_EquipIcon_Catalyst_Dvalin.png"
  },
  {
    "id": 14502,
    "name": "Kutsal Rüzgarların Kayıp Duası",
    "type_main": "ITEM_WEAPON",
    "type_sub": "WEAPON_CATALYST",
    "rank": 5,
    "img": "/image/game/genshin/weapon/UI_EquipIcon_Catalyst_Fourwinds.png"
  },
  {
    "id": 14503,
    "name": "N/A",
    "type_main": "ITEM_WEAPON",
    "type_sub": "WEAPON_CATALYST",
    "rank": 5,
    "img": "/image/game/genshin/weapon/UI_EquipIcon_Catalyst_Apprentice.png"
  },
  {
    "id": 14504,
    "name": "Tozlu Hatıra",
    "type_main": "ITEM_WEAPON",
    "type_sub": "WEAPON_CATALYST",
    "rank": 5,
    "img": "/image/game/genshin/weapon/UI_EquipIcon_Catalyst_Kunwu.png"
  },
  {
    "id": 14505,
    "name": "Yeşimlerin Mağrur Işıltısı",
    "type_main": "ITEM_WEAPON",
    "type_sub": "WEAPON_CATALYST",
    "rank": 5,
    "img": "/image/game/genshin/weapon/UI_EquipIcon_Catalyst_Morax.png"
  },
  {
    "id": 14506,
    "name": "Ebedi Mehtap",
    "type_main": "ITEM_WEAPON",
    "type_sub": "WEAPON_CATALYST",
    "rank": 5,
    "img": "/image/game/genshin/weapon/UI_EquipIcon_Catalyst_Kaleido.png"
  },
  {
    "id": 14508,
    "name": "N/A",
    "type_main": "ITEM_WEAPON",
    "type_sub": "WEAPON_CATALYST",
    "rank": 5,
    "img": "/image/game/genshin/weapon/UI_EquipIcon_Catalyst_Apprentice.png"
  },
  {
    "id": 14509,
    "name": "Kagura'nın Hakikati",
    "type_main": "ITEM_WEAPON",
    "type_sub": "WEAPON_CATALYST",
    "rank": 5,
    "img": "/image/game/genshin/weapon/UI_EquipIcon_Catalyst_Narukami.png"
  },
  {
    "id": 14511,
    "name": "Binbir Gece Süzülen Rüyalar",
    "type_main": "ITEM_WEAPON",
    "type_sub": "WEAPON_CATALYST",
    "rank": 5,
    "img": "/image/game/genshin/weapon/UI_EquipIcon_Catalyst_Ayus.png"
  },
  {
    "id": 14512,
    "name": "Tulaytullah'ın Anısı",
    "type_main": "ITEM_WEAPON",
    "type_sub": "WEAPON_CATALYST",
    "rank": 5,
    "img": "/image/game/genshin/weapon/UI_EquipIcon_Catalyst_Alaya.png"
  },
  {
    "id": 15101,
    "name": "Avcı Yayı",
    "type_main": "ITEM_WEAPON",
    "type_sub": "WEAPON_BOW",
    "rank": 1,
    "img": "/image/game/genshin/weapon/UI_EquipIcon_Bow_Hunters.png"
  },
  {
    "id": 15201,
    "name": "Usta Avcı Yayı",
    "type_main": "ITEM_WEAPON",
    "type_sub": "WEAPON_BOW",
    "rank": 2,
    "img": "/image/game/genshin/weapon/UI_EquipIcon_Bow_Old.png"
  },
  {
    "id": 15301,
    "name": "Kuzgun Yayı",
    "type_main": "ITEM_WEAPON",
    "type_sub": "WEAPON_BOW",
    "rank": 3,
    "img": "/image/game/genshin/weapon/UI_EquipIcon_Bow_Crowfeather.png"
  },
  {
    "id": 15302,
    "name": "Keskin Nişancı Yemini",
    "type_main": "ITEM_WEAPON",
    "type_sub": "WEAPON_BOW",
    "rank": 3,
    "img": "/image/game/genshin/weapon/UI_EquipIcon_Bow_Arjuna.png"
  },
  {
    "id": 15303,
    "name": "Eğri Yay",
    "type_main": "ITEM_WEAPON",
    "type_sub": "WEAPON_BOW",
    "rank": 3,
    "img": "/image/game/genshin/weapon/UI_EquipIcon_Bow_Curve.png"
  },
  {
    "id": 15304,
    "name": "Sapan",
    "type_main": "ITEM_WEAPON",
    "type_sub": "WEAPON_BOW",
    "rank": 3,
    "img": "/image/game/genshin/weapon/UI_EquipIcon_Bow_Sling.png"
  },
  {
    "id": 15305,
    "name": "Ulak",
    "type_main": "ITEM_WEAPON",
    "type_sub": "WEAPON_BOW",
    "rank": 3,
    "img": "/image/game/genshin/weapon/UI_EquipIcon_Bow_Msg.png"
  },
  {
    "id": 15306,
    "name": "Fildişi Yay",
    "type_main": "ITEM_WEAPON",
    "type_sub": "WEAPON_BOW",
    "rank": 3,
    "img": "/image/game/genshin/weapon/UI_EquipIcon_Bow_Hardwood.png"
  },
  {
    "id": 15401,
    "name": "Favonius Savaş Yayı",
    "type_main": "ITEM_WEAPON",
    "type_sub": "WEAPON_BOW",
    "rank": 4,
    "img": "/image/game/genshin/weapon/UI_EquipIcon_Bow_Zephyrus.png"
  },
  {
    "id": 15402,
    "name": "Kirişsiz Yay",
    "type_main": "ITEM_WEAPON",
    "type_sub": "WEAPON_BOW",
    "rank": 4,
    "img": "/image/game/genshin/weapon/UI_EquipIcon_Bow_Troupe.png"
  },
  {
    "id": 15403,
    "name": "Kurban Yayı",
    "type_main": "ITEM_WEAPON",
    "type_sub": "WEAPON_BOW",
    "rank": 4,
    "img": "/image/game/genshin/weapon/UI_EquipIcon_Bow_Fossil.png"
  },
  {
    "id": 15404,
    "name": "Kraliyet Yayı",
    "type_main": "ITEM_WEAPON",
    "type_sub": "WEAPON_BOW",
    "rank": 4,
    "img": "/image/game/genshin/weapon/UI_EquipIcon_Bow_Theocrat.png"
  },
  {
    "id": 15405,
    "name": "Pas",
    "type_main": "ITEM_WEAPON",
    "type_sub": "WEAPON_BOW",
    "rank": 4,
    "img": "/image/game/genshin/weapon/UI_EquipIcon_Bow_Recluse.png"
  },
  {
    "id": 15406,
    "name": "Prototip: Hilal",
    "type_main": "ITEM_WEAPON",
    "type_sub": "WEAPON_BOW",
    "rank": 4,
    "img": "/image/game/genshin/weapon/UI_EquipIcon_Bow_Proto.png"
  },
  {
    "id": 15407,
    "name": "Kompozit Yay",
    "type_main": "ITEM_WEAPON",
    "type_sub": "WEAPON_BOW",
    "rank": 4,
    "img": "/image/game/genshin/weapon/UI_EquipIcon_Bow_Exotic.png"
  },
  {
    "id": 15408,
    "name": "Kara Kaya Savaş Yayı",
    "type_main": "ITEM_WEAPON",
    "type_sub": "WEAPON_BOW",
    "rank": 4,
    "img": "/image/game/genshin/weapon/UI_EquipIcon_Bow_Blackrock.png"
  },
  {
    "id": 15409,
    "name": "Yeşil Av",
    "type_main": "ITEM_WEAPON",
    "type_sub": "WEAPON_BOW",
    "rank": 4,
    "img": "/image/game/genshin/weapon/UI_EquipIcon_Bow_Viridescent.png"
  },
  {
    "id": 15410,
    "name": "Gece Avcısı",
    "type_main": "ITEM_WEAPON",
    "type_sub": "WEAPON_BOW",
    "rank": 4,
    "img": "/image/game/genshin/weapon/UI_EquipIcon_Bow_Outlaw.png"
  },
  {
    "id": 15411,
    "name": "Solan Alacakaranlık",
    "type_main": "ITEM_WEAPON",
    "type_sub": "WEAPON_BOW",
    "rank": 4,
    "img": "/image/game/genshin/weapon/UI_EquipIcon_Bow_Fallensun.png"
  },
  {
    "id": 15412,
    "name": "Geceyarısı Valsi",
    "type_main": "ITEM_WEAPON",
    "type_sub": "WEAPON_BOW",
    "rank": 4,
    "img": "/image/game/genshin/weapon/UI_EquipIcon_Bow_Nachtblind.png"
  },
  {
    "id": 15413,
    "name": "Rüzgarçiçeği Kasidesi",
    "type_main": "ITEM_WEAPON",
    "type_sub": "WEAPON_BOW",
    "rank": 4,
    "img": "/image/game/genshin/weapon/UI_EquipIcon_Bow_Fleurfair.png"
  },
  {
    "id": 15414,
    "name": "Hamayumi",
    "type_main": "ITEM_WEAPON",
    "type_sub": "WEAPON_BOW",
    "rank": 4,
    "img": "/image/game/genshin/weapon/UI_EquipIcon_Bow_Bakufu.png"
  },
  {
    "id": 15415,
    "name": "Yırtıcı",
    "type_main": "ITEM_WEAPON",
    "type_sub": "WEAPON_BOW",
    "rank": 4,
    "img": "/image/game/genshin/weapon/UI_EquipIcon_Bow_Predator.png"
  },
  {
    "id": 15416,
    "name": "Mouun'un Ayı",
    "type_main": "ITEM_WEAPON",
    "type_sub": "WEAPON_BOW",
    "rank": 4,
    "img": "/image/game/genshin/weapon/UI_EquipIcon_Bow_Maria.png"
  },
  {
    "id": 15417,
    "name": "Kralın Yaveri",
    "type_main": "ITEM_WEAPON",
    "type_sub": "WEAPON_BOW",
    "rank": 4,
    "img": "/image/game/genshin/weapon/UI_EquipIcon_Bow_Arakalari.png"
  },
  {
    "id": 15418,
    "name": "Yolun Sonu",
    "type_main": "ITEM_WEAPON",
    "type_sub": "WEAPON_BOW",
    "rank": 4,
    "img": "/image/game/genshin/weapon/UI_EquipIcon_Bow_Fin.png"
  },
  {
    "id": 15419,
    "name": "Telli Turna",
    "type_main": "ITEM_WEAPON",
    "type_sub": "WEAPON_BOW",
    "rank": 4,
    "img": "/image/game/genshin/weapon/UI_EquipIcon_Bow_Ibis.png"
  },
  {
    "id": 15424,
    "name": "Yakıcı Güneşin Veliahtı",
    "type_main": "ITEM_WEAPON",
    "type_sub": "WEAPON_BOW",
    "rank": 4,
    "img": "/image/game/genshin/weapon/UI_EquipIcon_Bow_Gurabad.png"
  },
  {
    "id": 15425,
    "name": "Durgunluğun Şarkısı",
    "type_main": "ITEM_WEAPON",
    "type_sub": "WEAPON_BOW",
    "rank": 4,
    "img": "/image/game/genshin/weapon/UI_EquipIcon_Bow_Vorpal.png"
  },
  {
    "id": 15501,
    "name": "Göklerin Liri",
    "type_main": "ITEM_WEAPON",
    "type_sub": "WEAPON_BOW",
    "rank": 5,
    "img": "/image/game/genshin/weapon/UI_EquipIcon_Bow_Dvalin.png"
  },
  {
    "id": 15502,
    "name": "Amos'un Yayı",
    "type_main": "ITEM_WEAPON",
    "type_sub": "WEAPON_BOW",
    "rank": 5,
    "img": "/image/game/genshin/weapon/UI_EquipIcon_Bow_Amos.png"
  },
  {
    "id": 15503,
    "name": "Son Ağıt",
    "type_main": "ITEM_WEAPON",
    "type_sub": "WEAPON_BOW",
    "rank": 5,
    "img": "/image/game/genshin/weapon/UI_EquipIcon_Bow_Widsith.png"
  },
  {
    "id": 15504,
    "name": "N/A",
    "type_main": "ITEM_WEAPON",
    "type_sub": "WEAPON_BOW",
    "rank": 5,
    "img": "/image/game/genshin/weapon/UI_EquipIcon_Bow_Hunters.png"
  },
  {
    "id": 15505,
    "name": "N/A",
    "type_main": "ITEM_WEAPON",
    "type_sub": "WEAPON_BOW",
    "rank": 5,
    "img": "/image/game/genshin/weapon/UI_EquipIcon_Bow_Hunters.png"
  },
  {
    "id": 15506,
    "name": "N/A",
    "type_main": "ITEM_WEAPON",
    "type_sub": "WEAPON_BOW",
    "rank": 5,
    "img": "/image/game/genshin/weapon/UI_EquipIcon_Bow_Hunters.png"
  },
  {
    "id": 15507,
    "name": "Kutup Yıldızı",
    "type_main": "ITEM_WEAPON",
    "type_sub": "WEAPON_BOW",
    "rank": 5,
    "img": "/image/game/genshin/weapon/UI_EquipIcon_Bow_Worldbane.png"
  },
  {
    "id": 15508,
    "name": "Su Sureti",
    "type_main": "ITEM_WEAPON",
    "type_sub": "WEAPON_BOW",
    "rank": 5,
    "img": "/image/game/genshin/weapon/UI_EquipIcon_Bow_Kirin.png"
  },
  {
    "id": 15509,
    "name": "Yıldırım Nabzı",
    "type_main": "ITEM_WEAPON",
    "type_sub": "WEAPON_BOW",
    "rank": 5,
    "img": "/image/game/genshin/weapon/UI_EquipIcon_Bow_Narukami.png"
  },
  {
    "id": 15511,
    "name": "Avcının Yolu",
    "type_main": "ITEM_WEAPON",
    "type_sub": "WEAPON_BOW",
    "rank": 5,
    "img": "/image/game/genshin/weapon/UI_EquipIcon_Bow_Ayus.png"
  },
  {
    "id": 15512,
    "name": "İlk Büyük Sihir",
    "type_main": "ITEM_WEAPON",
    "type_sub": "WEAPON_BOW",
    "rank": 5,
    "img": "/image/game/genshin/weapon/UI_EquipIcon_Bow_Pledge.png"
  }
]