[
  {
    "id": 101021,
    "grup": 101,
    "name": "LP (+23)"
  },
  {
    "id": 101022,
    "grup": 101,
    "name": "LP (+29)"
  },
  {
    "id": 201021,
    "grup": 201,
    "name": "LP (+50)"
  },
  {
    "id": 201022,
    "grup": 201,
    "name": "LP (+60)"
  },
  {
    "id": 201023,
    "grup": 201,
    "name": "LP (+71)"
  },
  {
    "id": 301021,
    "grup": 301,
    "name": "LP (+100)"
  },
  {
    "id": 301022,
    "grup": 301,
    "name": "LP (+114)"
  },
  {
    "id": 301023,
    "grup": 301,
    "name": "LP (+129)"
  },
  {
    "id": 301024,
    "grup": 301,
    "name": "LP (+143)"
  },
  {
    "id": 401021,
    "grup": 401,
    "name": "LP (+167)"
  },
  {
    "id": 401022,
    "grup": 401,
    "name": "LP (+191)"
  },
  {
    "id": 401023,
    "grup": 401,
    "name": "LP (+215)"
  },
  {
    "id": 401024,
    "grup": 401,
    "name": "LP (+239)"
  },
  {
    "id": 501021,
    "grup": 501,
    "name": "LP (+209)"
  },
  {
    "id": 501022,
    "grup": 501,
    "name": "LP (+239)"
  },
  {
    "id": 501023,
    "grup": 501,
    "name": "LP (+268)"
  },
  {
    "id": 501024,
    "grup": 501,
    "name": "LP (+298)"
  },
  {
    "id": 101031,
    "grup": 101,
    "name": "LP (1.17%)"
  },
  {
    "id": 101032,
    "grup": 101,
    "name": "LP (1.46%)"
  },
  {
    "id": 201031,
    "grup": 201,
    "name": "LP (1.63%)"
  },
  {
    "id": 201032,
    "grup": 201,
    "name": "LP (1.98%)"
  },
  {
    "id": 201033,
    "grup": 201,
    "name": "LP (2.33%)"
  },
  {
    "id": 301031,
    "grup": 301,
    "name": "LP (2.45%)"
  },
  {
    "id": 301032,
    "grup": 301,
    "name": "LP (2.80%)"
  },
  {
    "id": 301033,
    "grup": 301,
    "name": "LP (3.15%)"
  },
  {
    "id": 301034,
    "grup": 301,
    "name": "LP (3.50%)"
  },
  {
    "id": 401031,
    "grup": 401,
    "name": "LP (3.26%)"
  },
  {
    "id": 401032,
    "grup": 401,
    "name": "LP (3.73%)"
  },
  {
    "id": 401033,
    "grup": 401,
    "name": "LP (4.20%)"
  },
  {
    "id": 401034,
    "grup": 401,
    "name": "LP (4.66%)"
  },
  {
    "id": 501031,
    "grup": 501,
    "name": "LP (4.08%)"
  },
  {
    "id": 501032,
    "grup": 501,
    "name": "LP (4.66%)"
  },
  {
    "id": 501033,
    "grup": 501,
    "name": "LP (5.25%)"
  },
  {
    "id": 501034,
    "grup": 501,
    "name": "LP (5.83%)"
  },
  {
    "id": 101051,
    "grup": 101,
    "name": "ANG (+1)"
  },
  {
    "id": 101052,
    "grup": 101,
    "name": "ANG (+1)"
  },
  {
    "id": 201051,
    "grup": 201,
    "name": "ANG (+3)"
  },
  {
    "id": 201052,
    "grup": 201,
    "name": "ANG (+3)"
  },
  {
    "id": 201053,
    "grup": 201,
    "name": "ANG (+4)"
  },
  {
    "id": 301051,
    "grup": 301,
    "name": "ANG (+6)"
  },
  {
    "id": 301052,
    "grup": 301,
    "name": "ANG (+7)"
  },
  {
    "id": 301053,
    "grup": 301,
    "name": "ANG (+8)"
  },
  {
    "id": 301054,
    "grup": 301,
    "name": "ANG (+9)"
  },
  {
    "id": 401051,
    "grup": 401,
    "name": "ANG (+10)"
  },
  {
    "id": 401052,
    "grup": 401,
    "name": "ANG (+12)"
  },
  {
    "id": 401053,
    "grup": 401,
    "name": "ANG (+14)"
  },
  {
    "id": 401054,
    "grup": 401,
    "name": "ANG (+15)"
  },
  {
    "id": 501051,
    "grup": 501,
    "name": "ANG (+13)"
  },
  {
    "id": 501052,
    "grup": 501,
    "name": "ANG (+15)"
  },
  {
    "id": 501053,
    "grup": 501,
    "name": "ANG (+17)"
  },
  {
    "id": 501054,
    "grup": 501,
    "name": "ANG (+19)"
  },
  {
    "id": 101061,
    "grup": 101,
    "name": "ANG (1.17%)"
  },
  {
    "id": 101062,
    "grup": 101,
    "name": "ANG (1.46%)"
  },
  {
    "id": 201061,
    "grup": 201,
    "name": "ANG (1.63%)"
  },
  {
    "id": 201062,
    "grup": 201,
    "name": "ANG (1.98%)"
  },
  {
    "id": 201063,
    "grup": 201,
    "name": "ANG (2.33%)"
  },
  {
    "id": 301061,
    "grup": 301,
    "name": "ANG (2.45%)"
  },
  {
    "id": 301062,
    "grup": 301,
    "name": "ANG (2.80%)"
  },
  {
    "id": 301063,
    "grup": 301,
    "name": "ANG (3.15%)"
  },
  {
    "id": 301064,
    "grup": 301,
    "name": "ANG (3.50%)"
  },
  {
    "id": 401061,
    "grup": 401,
    "name": "ANG (3.26%)"
  },
  {
    "id": 401062,
    "grup": 401,
    "name": "ANG (3.73%)"
  },
  {
    "id": 401063,
    "grup": 401,
    "name": "ANG (4.20%)"
  },
  {
    "id": 401064,
    "grup": 401,
    "name": "ANG (4.66%)"
  },
  {
    "id": 501061,
    "grup": 501,
    "name": "ANG (4.08%)"
  },
  {
    "id": 501062,
    "grup": 501,
    "name": "ANG (4.66%)"
  },
  {
    "id": 501063,
    "grup": 501,
    "name": "ANG (5.25%)"
  },
  {
    "id": 501064,
    "grup": 501,
    "name": "ANG (5.83%)"
  },
  {
    "id": 101081,
    "grup": 101,
    "name": "VTD (+1)"
  },
  {
    "id": 101082,
    "grup": 101,
    "name": "VTD (+2)"
  },
  {
    "id": 201081,
    "grup": 201,
    "name": "VTD (+3)"
  },
  {
    "id": 201082,
    "grup": 201,
    "name": "VTD (+4)"
  },
  {
    "id": 201083,
    "grup": 201,
    "name": "VTD (+5)"
  },
  {
    "id": 301081,
    "grup": 301,
    "name": "VTD (+7)"
  },
  {
    "id": 301082,
    "grup": 301,
    "name": "VTD (+8)"
  },
  {
    "id": 301083,
    "grup": 301,
    "name": "VTD (+10)"
  },
  {
    "id": 301084,
    "grup": 301,
    "name": "VTD (+11)"
  },
  {
    "id": 401081,
    "grup": 401,
    "name": "VTD (+12)"
  },
  {
    "id": 401082,
    "grup": 401,
    "name": "VTD (+14)"
  },
  {
    "id": 401083,
    "grup": 401,
    "name": "VTD (+16)"
  },
  {
    "id": 401084,
    "grup": 401,
    "name": "VTD (+18)"
  },
  {
    "id": 501081,
    "grup": 501,
    "name": "VTD (+16)"
  },
  {
    "id": 501082,
    "grup": 501,
    "name": "VTD (+18)"
  },
  {
    "id": 501083,
    "grup": 501,
    "name": "VTD (+20)"
  },
  {
    "id": 501084,
    "grup": 501,
    "name": "VTD (+23)"
  },
  {
    "id": 101091,
    "grup": 101,
    "name": "VTD (1.46%)"
  },
  {
    "id": 101092,
    "grup": 101,
    "name": "VTD (1.82%)"
  },
  {
    "id": 201091,
    "grup": 201,
    "name": "VTD (2.04%)"
  },
  {
    "id": 201092,
    "grup": 201,
    "name": "VTD (2.48%)"
  },
  {
    "id": 201093,
    "grup": 201,
    "name": "VTD (2.91%)"
  },
  {
    "id": 301091,
    "grup": 301,
    "name": "VTD (3.06%)"
  },
  {
    "id": 301092,
    "grup": 301,
    "name": "VTD (3.50%)"
  },
  {
    "id": 301093,
    "grup": 301,
    "name": "VTD (3.93%)"
  },
  {
    "id": 301094,
    "grup": 301,
    "name": "VTD (4.37%)"
  },
  {
    "id": 401091,
    "grup": 401,
    "name": "VTD (4.08%)"
  },
  {
    "id": 401092,
    "grup": 401,
    "name": "VTD (4.66%)"
  },
  {
    "id": 401093,
    "grup": 401,
    "name": "VTD (5.25%)"
  },
  {
    "id": 401094,
    "grup": 401,
    "name": "VTD (5.83%)"
  },
  {
    "id": 501091,
    "grup": 501,
    "name": "VTD (5.10%)"
  },
  {
    "id": 501092,
    "grup": 501,
    "name": "VTD (5.83%)"
  },
  {
    "id": 501093,
    "grup": 501,
    "name": "VTD (6.56%)"
  },
  {
    "id": 501094,
    "grup": 501,
    "name": "VTD (7.29%)"
  },
  {
    "id": 101231,
    "grup": 101,
    "name": "Aufladerate (1.30%)"
  },
  {
    "id": 101232,
    "grup": 101,
    "name": "Aufladerate (1.62%)"
  },
  {
    "id": 201231,
    "grup": 201,
    "name": "Aufladerate (1.81%)"
  },
  {
    "id": 201232,
    "grup": 201,
    "name": "Aufladerate (2.20%)"
  },
  {
    "id": 201233,
    "grup": 201,
    "name": "Aufladerate (2.59%)"
  },
  {
    "id": 301231,
    "grup": 301,
    "name": "Aufladerate (2.72%)"
  },
  {
    "id": 301232,
    "grup": 301,
    "name": "Aufladerate (3.11%)"
  },
  {
    "id": 301233,
    "grup": 301,
    "name": "Aufladerate (3.50%)"
  },
  {
    "id": 301234,
    "grup": 301,
    "name": "Aufladerate (3.89%)"
  },
  {
    "id": 401231,
    "grup": 401,
    "name": "Aufladerate (3.63%)"
  },
  {
    "id": 401232,
    "grup": 401,
    "name": "Aufladerate (4.14%)"
  },
  {
    "id": 401233,
    "grup": 401,
    "name": "Aufladerate (4.66%)"
  },
  {
    "id": 401234,
    "grup": 401,
    "name": "Aufladerate (5.18%)"
  },
  {
    "id": 501231,
    "grup": 501,
    "name": "Aufladerate (4.53%)"
  },
  {
    "id": 501232,
    "grup": 501,
    "name": "Aufladerate (5.18%)"
  },
  {
    "id": 501233,
    "grup": 501,
    "name": "Aufladerate (5.83%)"
  },
  {
    "id": 501234,
    "grup": 501,
    "name": "Aufladerate (6.48%)"
  },
  {
    "id": 101241,
    "grup": 101,
    "name": "Elementarkunde (+4)"
  },
  {
    "id": 101242,
    "grup": 101,
    "name": "Elementarkunde (+5)"
  },
  {
    "id": 201241,
    "grup": 201,
    "name": "Elementarkunde (+6)"
  },
  {
    "id": 201242,
    "grup": 201,
    "name": "Elementarkunde (+7)"
  },
  {
    "id": 201243,
    "grup": 201,
    "name": "Elementarkunde (+9)"
  },
  {
    "id": 301241,
    "grup": 301,
    "name": "Elementarkunde (+9)"
  },
  {
    "id": 301242,
    "grup": 301,
    "name": "Elementarkunde (+11)"
  },
  {
    "id": 301243,
    "grup": 301,
    "name": "Elementarkunde (+12)"
  },
  {
    "id": 301244,
    "grup": 301,
    "name": "Elementarkunde (+13)"
  },
  {
    "id": 401241,
    "grup": 401,
    "name": "Elementarkunde (+13)"
  },
  {
    "id": 401242,
    "grup": 401,
    "name": "Elementarkunde (+14)"
  },
  {
    "id": 401243,
    "grup": 401,
    "name": "Elementarkunde (+16)"
  },
  {
    "id": 401244,
    "grup": 401,
    "name": "Elementarkunde (+18)"
  },
  {
    "id": 501241,
    "grup": 501,
    "name": "Elementarkunde (+16)"
  },
  {
    "id": 501242,
    "grup": 501,
    "name": "Elementarkunde (+18)"
  },
  {
    "id": 501243,
    "grup": 501,
    "name": "Elementarkunde (+20)"
  },
  {
    "id": 501244,
    "grup": 501,
    "name": "Elementarkunde (+23)"
  },
  {
    "id": 101201,
    "grup": 101,
    "name": "KT (0.78%)"
  },
  {
    "id": 101202,
    "grup": 101,
    "name": "KT (0.97%)"
  },
  {
    "id": 201201,
    "grup": 201,
    "name": "KT (1.09%)"
  },
  {
    "id": 201202,
    "grup": 201,
    "name": "KT (1.32%)"
  },
  {
    "id": 201203,
    "grup": 201,
    "name": "KT (1.55%)"
  },
  {
    "id": 301201,
    "grup": 301,
    "name": "KT (1.63%)"
  },
  {
    "id": 301202,
    "grup": 301,
    "name": "KT (1.86%)"
  },
  {
    "id": 301203,
    "grup": 301,
    "name": "KT (2.10%)"
  },
  {
    "id": 301204,
    "grup": 301,
    "name": "KT (2.33%)"
  },
  {
    "id": 401201,
    "grup": 401,
    "name": "KT (2.18%)"
  },
  {
    "id": 401202,
    "grup": 401,
    "name": "KT (2.49%)"
  },
  {
    "id": 401203,
    "grup": 401,
    "name": "KT (2.80%)"
  },
  {
    "id": 401204,
    "grup": 401,
    "name": "KT (3.11%)"
  },
  {
    "id": 501201,
    "grup": 501,
    "name": "KT (2.72%)"
  },
  {
    "id": 501202,
    "grup": 501,
    "name": "KT (3.11%)"
  },
  {
    "id": 501203,
    "grup": 501,
    "name": "KT (3.50%)"
  },
  {
    "id": 501204,
    "grup": 501,
    "name": "KT (3.89%)"
  },
  {
    "id": 101221,
    "grup": 101,
    "name": "KSCH (1.55%)"
  },
  {
    "id": 101222,
    "grup": 101,
    "name": "KSCH (1.94%)"
  },
  {
    "id": 201221,
    "grup": 201,
    "name": "KSCH (2.18%)"
  },
  {
    "id": 201222,
    "grup": 201,
    "name": "KSCH (2.64%)"
  },
  {
    "id": 201223,
    "grup": 201,
    "name": "KSCH (3.11%)"
  },
  {
    "id": 301221,
    "grup": 301,
    "name": "KSCH (3.26%)"
  },
  {
    "id": 301222,
    "grup": 301,
    "name": "KSCH (3.73%)"
  },
  {
    "id": 301223,
    "grup": 301,
    "name": "KSCH (4.20%)"
  },
  {
    "id": 301224,
    "grup": 301,
    "name": "KSCH (4.66%)"
  },
  {
    "id": 401221,
    "grup": 401,
    "name": "KSCH (4.35%)"
  },
  {
    "id": 401222,
    "grup": 401,
    "name": "KSCH (4.97%)"
  },
  {
    "id": 401223,
    "grup": 401,
    "name": "KSCH (5.60%)"
  },
  {
    "id": 401224,
    "grup": 401,
    "name": "KSCH (6.22%)"
  },
  {
    "id": 501221,
    "grup": 501,
    "name": "KSCH (5.44%)"
  },
  {
    "id": 501222,
    "grup": 501,
    "name": "KSCH (6.22%)"
  },
  {
    "id": 501223,
    "grup": 501,
    "name": "KSCH (6.99%)"
  },
  {
    "id": 501224,
    "grup": 501,
    "name": "KSCH (7.77%)"
  },
  {
    "id": 999001,
    "grup": 999,
    "name": "KSCH (350.00%)"
  },
  {
    "id": 999002,
    "grup": 999,
    "name": "KT (100.00%)"
  },
  {
    "id": 999003,
    "grup": 999,
    "name": "ANG (+233333)"
  },
  {
    "id": 999004,
    "grup": 999,
    "name": "VTD (+233333)"
  },
  {
    "id": 998001,
    "grup": 998,
    "name": "LP (14.57%)"
  },
  {
    "id": 998002,
    "grup": 998,
    "name": "ANG (14.57%)"
  },
  {
    "id": 998003,
    "grup": 998,
    "name": "VTD (18.21%)"
  },
  {
    "id": 998004,
    "grup": 998,
    "name": "KT (9.71%)"
  },
  {
    "id": 998005,
    "grup": 998,
    "name": "Aufladerate (16.19%)"
  },
  {
    "id": 998006,
    "grup": 998,
    "name": "Elementarkunde (+58)"
  },
  {
    "id": 998007,
    "grup": 998,
    "name": "KSCH (19.43%)"
  },
  {
    "id": 995001,
    "grup": 995,
    "name": "LP (14.57%)"
  },
  {
    "id": 995002,
    "grup": 995,
    "name": "ANG (14.57%)"
  },
  {
    "id": 995003,
    "grup": 995,
    "name": "VTD (18.21%)"
  },
  {
    "id": 995004,
    "grup": 995,
    "name": "KT (9.71%)"
  },
  {
    "id": 995005,
    "grup": 995,
    "name": "Aufladerate (16.19%)"
  },
  {
    "id": 995006,
    "grup": 995,
    "name": "Elementarkunde (+58)"
  },
  {
    "id": 995007,
    "grup": 995,
    "name": "KSCH (19.43%)"
  },
  {
    "id": 997001,
    "grup": 997,
    "name": "LP (9.32%)"
  },
  {
    "id": 997002,
    "grup": 997,
    "name": "ANG (9.32%)"
  },
  {
    "id": 997003,
    "grup": 997,
    "name": "VTD (11.66%)"
  },
  {
    "id": 997004,
    "grup": 997,
    "name": "KT (6.22%)"
  },
  {
    "id": 997005,
    "grup": 997,
    "name": "Aufladerate (10.36%)"
  },
  {
    "id": 997006,
    "grup": 997,
    "name": "Elementarkunde (+37)"
  },
  {
    "id": 997007,
    "grup": 997,
    "name": "KSCH (12.43%)"
  },
  {
    "id": 996001,
    "grup": 996,
    "name": "LP (9.32%)"
  },
  {
    "id": 996002,
    "grup": 996,
    "name": "ANG (9.32%)"
  },
  {
    "id": 996003,
    "grup": 996,
    "name": "VTD (11.66%)"
  },
  {
    "id": 996004,
    "grup": 996,
    "name": "KT (6.22%)"
  },
  {
    "id": 996005,
    "grup": 996,
    "name": "Aufladerate (10.36%)"
  },
  {
    "id": 996006,
    "grup": 996,
    "name": "Elementarkunde (+37)"
  },
  {
    "id": 996007,
    "grup": 996,
    "name": "KSCH (12.43%)"
  },
  {
    "id": 996008,
    "grup": 996,
    "name": "LP (+478)"
  },
  {
    "id": 996009,
    "grup": 996,
    "name": "ANG (+31)"
  },
  {
    "id": 996010,
    "grup": 996,
    "name": "VTD (+37)"
  },
  {
    "id": 994001,
    "grup": 994,
    "name": "KT (80.00%)"
  },
  {
    "id": 993001,
    "grup": 993,
    "name": "KSCH (80.00%)"
  },
  {
    "id": 992001,
    "grup": 992,
    "name": "Schildeffizienz (+0)"
  },
  {
    "id": 991001,
    "grup": 991,
    "name": "Heilungsbonus (80.00%)"
  },
  {
    "id": 990001,
    "grup": 990,
    "name": "Passiver Heilungsbonus (80.00%)"
  },
  {
    "id": 989001,
    "grup": 989,
    "name": "Schnelles Abklingen (+0)"
  },
  {
    "id": 988001,
    "grup": 988,
    "name": "Bewegungs-GSW (30.00%)"
  },
  {
    "id": 987001,
    "grup": 987,
    "name": "Pyro-SCH-Bonus (80.00%)"
  },
  {
    "id": 986001,
    "grup": 986,
    "name": "Elektro-SCH-Bonus (80.00%)"
  },
  {
    "id": 985001,
    "grup": 985,
    "name": "Hydro-SCH-Bonus (80.00%)"
  },
  {
    "id": 984001,
    "grup": 984,
    "name": "Dendro-SCH-Bonus (80.00%)"
  },
  {
    "id": 983001,
    "grup": 983,
    "name": "Anemo-SCH-Bonus (80.00%)"
  },
  {
    "id": 982001,
    "grup": 982,
    "name": "Geo-SCH-Bonus (80.00%)"
  },
  {
    "id": 981001,
    "grup": 981,
    "name": "Kryo-SCH-Bonus (80.00%)"
  },
  {
    "id": 980001,
    "grup": 980,
    "name": "Physischer SCH-Bonus (80.00%)"
  },
  {
    "id": 979001,
    "grup": 979,
    "name": "Pyro-WDS (80.00%)"
  },
  {
    "id": 978001,
    "grup": 978,
    "name": "Elektro-WDS (80.00%)"
  },
  {
    "id": 977001,
    "grup": 977,
    "name": "Hydro-WDS (80.00%)"
  },
  {
    "id": 976001,
    "grup": 976,
    "name": "Dendro-WDS (80.00%)"
  },
  {
    "id": 975001,
    "grup": 975,
    "name": "Anemo-WDS (80.00%)"
  },
  {
    "id": 974001,
    "grup": 974,
    "name": "Geo-WDS (80.00%)"
  },
  {
    "id": 973001,
    "grup": 973,
    "name": "Kryo-WDS (80.00%)"
  },
  {
    "id": 972001,
    "grup": 972,
    "name": "Physischer WDS (80.00%)"
  },
  {
    "id": 971001,
    "grup": 971,
    "name": "SCH-Bonus (80.00%)"
  },
  {
    "id": 970001,
    "grup": 970,
    "name": "SCH-Minderung (80.00%)"
  },
  {
    "id": 969001,
    "grup": 969,
    "name": "VTD (+-500)"
  },
  {
    "id": 968001,
    "grup": 968,
    "name": "Elementarkunde (+-300)"
  },
  {
    "id": 967001,
    "grup": 967,
    "name": "KT (100.00%)"
  },
  {
    "id": 966001,
    "grup": 966,
    "name": "Elementarkunde (+300)"
  },
  {
    "id": 961001,
    "grup": 961,
    "name": "LP (14.57%)"
  },
  {
    "id": 961002,
    "grup": 961,
    "name": "ANG (14.57%)"
  },
  {
    "id": 961003,
    "grup": 961,
    "name": "VTD (18.21%)"
  },
  {
    "id": 961004,
    "grup": 961,
    "name": "KT (9.71%)"
  },
  {
    "id": 961005,
    "grup": 961,
    "name": "Aufladerate (16.19%)"
  },
  {
    "id": 961006,
    "grup": 961,
    "name": "Elementarkunde (+58)"
  },
  {
    "id": 961007,
    "grup": 961,
    "name": "KSCH (19.43%)"
  },
  {
    "id": 961008,
    "grup": 961,
    "name": "LP (+746)"
  },
  {
    "id": 961009,
    "grup": 961,
    "name": "ANG (+48)"
  },
  {
    "id": 961010,
    "grup": 961,
    "name": "VTD (+57)"
  },
  {
    "id": 962001,
    "grup": 962,
    "name": "LP (14.57%)"
  },
  {
    "id": 962002,
    "grup": 962,
    "name": "ANG (14.57%)"
  },
  {
    "id": 962003,
    "grup": 962,
    "name": "VTD (18.21%)"
  },
  {
    "id": 962004,
    "grup": 962,
    "name": "KT (9.71%)"
  },
  {
    "id": 962005,
    "grup": 962,
    "name": "Aufladerate (16.19%)"
  },
  {
    "id": 962006,
    "grup": 962,
    "name": "Elementarkunde (+58)"
  },
  {
    "id": 962007,
    "grup": 962,
    "name": "KSCH (19.43%)"
  },
  {
    "id": 962008,
    "grup": 962,
    "name": "LP (+746)"
  },
  {
    "id": 962009,
    "grup": 962,
    "name": "ANG (+48)"
  },
  {
    "id": 962010,
    "grup": 962,
    "name": "VTD (+57)"
  },
  {
    "id": 963001,
    "grup": 963,
    "name": "LP (14.57%)"
  },
  {
    "id": 963002,
    "grup": 963,
    "name": "ANG (14.57%)"
  },
  {
    "id": 963003,
    "grup": 963,
    "name": "VTD (18.21%)"
  },
  {
    "id": 963004,
    "grup": 963,
    "name": "KT (9.71%)"
  },
  {
    "id": 963005,
    "grup": 963,
    "name": "Aufladerate (16.19%)"
  },
  {
    "id": 963006,
    "grup": 963,
    "name": "Elementarkunde (+58)"
  },
  {
    "id": 963007,
    "grup": 963,
    "name": "KSCH (19.43%)"
  },
  {
    "id": 963008,
    "grup": 963,
    "name": "LP (+746)"
  },
  {
    "id": 963009,
    "grup": 963,
    "name": "ANG (+48)"
  },
  {
    "id": 963010,
    "grup": 963,
    "name": "VTD (+57)"
  },
  {
    "id": 964001,
    "grup": 964,
    "name": "LP (14.57%)"
  },
  {
    "id": 964002,
    "grup": 964,
    "name": "ANG (14.57%)"
  },
  {
    "id": 964003,
    "grup": 964,
    "name": "VTD (18.21%)"
  },
  {
    "id": 964004,
    "grup": 964,
    "name": "KT (9.71%)"
  },
  {
    "id": 964005,
    "grup": 964,
    "name": "Aufladerate (16.19%)"
  },
  {
    "id": 964006,
    "grup": 964,
    "name": "Elementarkunde (+58)"
  },
  {
    "id": 964007,
    "grup": 964,
    "name": "KSCH (19.43%)"
  },
  {
    "id": 964008,
    "grup": 964,
    "name": "LP (+746)"
  },
  {
    "id": 964009,
    "grup": 964,
    "name": "ANG (+48)"
  },
  {
    "id": 964010,
    "grup": 964,
    "name": "VTD (+57)"
  },
  {
    "id": 965001,
    "grup": 965,
    "name": "LP (14.57%)"
  },
  {
    "id": 965002,
    "grup": 965,
    "name": "ANG (14.57%)"
  },
  {
    "id": 965003,
    "grup": 965,
    "name": "VTD (18.21%)"
  },
  {
    "id": 965004,
    "grup": 965,
    "name": "KT (9.71%)"
  },
  {
    "id": 965005,
    "grup": 965,
    "name": "Aufladerate (16.19%)"
  },
  {
    "id": 965006,
    "grup": 965,
    "name": "Elementarkunde (+58)"
  },
  {
    "id": 965007,
    "grup": 965,
    "name": "KSCH (19.43%)"
  },
  {
    "id": 965008,
    "grup": 965,
    "name": "LP (+746)"
  },
  {
    "id": 965009,
    "grup": 965,
    "name": "ANG (+48)"
  },
  {
    "id": 965010,
    "grup": 965,
    "name": "VTD (+57)"
  },
  {
    "id": 951001,
    "grup": 951,
    "name": "LP (14.57%)"
  },
  {
    "id": 951002,
    "grup": 951,
    "name": "ANG (14.57%)"
  },
  {
    "id": 951003,
    "grup": 951,
    "name": "VTD (18.21%)"
  },
  {
    "id": 951004,
    "grup": 951,
    "name": "KT (9.71%)"
  },
  {
    "id": 951005,
    "grup": 951,
    "name": "Aufladerate (16.19%)"
  },
  {
    "id": 951006,
    "grup": 951,
    "name": "Elementarkunde (+58)"
  },
  {
    "id": 951007,
    "grup": 951,
    "name": "KSCH (19.43%)"
  },
  {
    "id": 952001,
    "grup": 952,
    "name": "LP (14.57%)"
  },
  {
    "id": 952002,
    "grup": 952,
    "name": "ANG (14.57%)"
  },
  {
    "id": 952003,
    "grup": 952,
    "name": "VTD (18.21%)"
  },
  {
    "id": 952004,
    "grup": 952,
    "name": "KT (9.71%)"
  },
  {
    "id": 952005,
    "grup": 952,
    "name": "Aufladerate (16.19%)"
  },
  {
    "id": 952006,
    "grup": 952,
    "name": "Elementarkunde (+58)"
  },
  {
    "id": 952007,
    "grup": 952,
    "name": "KSCH (19.43%)"
  },
  {
    "id": 953001,
    "grup": 953,
    "name": "LP (14.57%)"
  },
  {
    "id": 953002,
    "grup": 953,
    "name": "ANG (14.57%)"
  },
  {
    "id": 953003,
    "grup": 953,
    "name": "VTD (18.21%)"
  },
  {
    "id": 953004,
    "grup": 953,
    "name": "KT (9.71%)"
  },
  {
    "id": 953005,
    "grup": 953,
    "name": "Aufladerate (16.19%)"
  },
  {
    "id": 953006,
    "grup": 953,
    "name": "Elementarkunde (+58)"
  },
  {
    "id": 953007,
    "grup": 953,
    "name": "KSCH (19.43%)"
  },
  {
    "id": 956001,
    "grup": 956,
    "name": "LP (14.57%)"
  },
  {
    "id": 956002,
    "grup": 956,
    "name": "ANG (14.57%)"
  },
  {
    "id": 956003,
    "grup": 956,
    "name": "VTD (18.21%)"
  },
  {
    "id": 956004,
    "grup": 956,
    "name": "KT (9.71%)"
  },
  {
    "id": 956005,
    "grup": 956,
    "name": "Aufladerate (16.19%)"
  },
  {
    "id": 956006,
    "grup": 956,
    "name": "Elementarkunde (+58)"
  },
  {
    "id": 956007,
    "grup": 956,
    "name": "KSCH (19.43%)"
  },
  {
    "id": 941001,
    "grup": 941,
    "name": "LP (9.32%)"
  },
  {
    "id": 941002,
    "grup": 941,
    "name": "ANG (9.32%)"
  },
  {
    "id": 941003,
    "grup": 941,
    "name": "VTD (11.66%)"
  },
  {
    "id": 941004,
    "grup": 941,
    "name": "KT (6.22%)"
  },
  {
    "id": 941005,
    "grup": 941,
    "name": "Aufladerate (10.36%)"
  },
  {
    "id": 941006,
    "grup": 941,
    "name": "Elementarkunde (+37)"
  },
  {
    "id": 941007,
    "grup": 941,
    "name": "KSCH (12.43%)"
  },
  {
    "id": 942001,
    "grup": 942,
    "name": "LP (9.32%)"
  },
  {
    "id": 942002,
    "grup": 942,
    "name": "ANG (9.32%)"
  },
  {
    "id": 942003,
    "grup": 942,
    "name": "VTD (11.66%)"
  },
  {
    "id": 942004,
    "grup": 942,
    "name": "KT (6.22%)"
  },
  {
    "id": 942005,
    "grup": 942,
    "name": "Aufladerate (10.36%)"
  },
  {
    "id": 942006,
    "grup": 942,
    "name": "Elementarkunde (+37)"
  },
  {
    "id": 942007,
    "grup": 942,
    "name": "KSCH (12.43%)"
  },
  {
    "id": 943001,
    "grup": 943,
    "name": "LP (9.32%)"
  },
  {
    "id": 943002,
    "grup": 943,
    "name": "ANG (9.32%)"
  },
  {
    "id": 943003,
    "grup": 943,
    "name": "VTD (11.66%)"
  },
  {
    "id": 943004,
    "grup": 943,
    "name": "KT (6.22%)"
  },
  {
    "id": 943005,
    "grup": 943,
    "name": "Aufladerate (10.36%)"
  },
  {
    "id": 943006,
    "grup": 943,
    "name": "Elementarkunde (+37)"
  },
  {
    "id": 943007,
    "grup": 943,
    "name": "KSCH (12.43%)"
  },
  {
    "id": 946001,
    "grup": 946,
    "name": "LP (9.32%)"
  },
  {
    "id": 946002,
    "grup": 946,
    "name": "ANG (9.32%)"
  },
  {
    "id": 946003,
    "grup": 946,
    "name": "VTD (11.66%)"
  },
  {
    "id": 946004,
    "grup": 946,
    "name": "KT (6.22%)"
  },
  {
    "id": 946005,
    "grup": 946,
    "name": "Aufladerate (10.36%)"
  },
  {
    "id": 946006,
    "grup": 946,
    "name": "Elementarkunde (+37)"
  },
  {
    "id": 946007,
    "grup": 946,
    "name": "KSCH (12.43%)"
  },
  {
    "id": 947001,
    "grup": 947,
    "name": "LP (3.96%)"
  },
  {
    "id": 947002,
    "grup": 947,
    "name": "ANG (3.96%)"
  },
  {
    "id": 947003,
    "grup": 947,
    "name": "VTD (4.95%)"
  },
  {
    "id": 947004,
    "grup": 947,
    "name": "KT (2.64%)"
  },
  {
    "id": 947005,
    "grup": 947,
    "name": "Aufladerate (4.40%)"
  },
  {
    "id": 947006,
    "grup": 947,
    "name": "Elementarkunde (+15)"
  },
  {
    "id": 947007,
    "grup": 947,
    "name": "KSCH (5.28%)"
  },
  {
    "id": 947008,
    "grup": 947,
    "name": "LP (+203)"
  },
  {
    "id": 947009,
    "grup": 947,
    "name": "ANG (+13)"
  },
  {
    "id": 947010,
    "grup": 947,
    "name": "VTD (+15)"
  }
]