[
  {
    "id": 11101,
    "name": "Dull Blade",
    "type_main": "ITEM_WEAPON",
    "type_sub": "WEAPON_SWORD_ONE_HAND",
    "rank": 1,
    "img": "/image/game/genshin/weapon/UI_EquipIcon_Sword_Blunt.png"
  },
  {
    "id": 11201,
    "name": "Silver Sword",
    "type_main": "ITEM_WEAPON",
    "type_sub": "WEAPON_SWORD_ONE_HAND",
    "rank": 2,
    "img": "/image/game/genshin/weapon/UI_EquipIcon_Sword_Silver.png"
  },
  {
    "id": 11301,
    "name": "Cool Steel",
    "type_main": "ITEM_WEAPON",
    "type_sub": "WEAPON_SWORD_ONE_HAND",
    "rank": 3,
    "img": "/image/game/genshin/weapon/UI_EquipIcon_Sword_Steel.png"
  },
  {
    "id": 11302,
    "name": "Harbinger of Dawn",
    "type_main": "ITEM_WEAPON",
    "type_sub": "WEAPON_SWORD_ONE_HAND",
    "rank": 3,
    "img": "/image/game/genshin/weapon/UI_EquipIcon_Sword_Dawn.png"
  },
  {
    "id": 11303,
    "name": "Traveler's Handy Sword",
    "type_main": "ITEM_WEAPON",
    "type_sub": "WEAPON_SWORD_ONE_HAND",
    "rank": 3,
    "img": "/image/game/genshin/weapon/UI_EquipIcon_Sword_Traveler.png"
  },
  {
    "id": 11304,
    "name": "Dark Iron Sword",
    "type_main": "ITEM_WEAPON",
    "type_sub": "WEAPON_SWORD_ONE_HAND",
    "rank": 3,
    "img": "/image/game/genshin/weapon/UI_EquipIcon_Sword_Darker.png"
  },
  {
    "id": 11305,
    "name": "Fillet Blade",
    "type_main": "ITEM_WEAPON",
    "type_sub": "WEAPON_SWORD_ONE_HAND",
    "rank": 3,
    "img": "/image/game/genshin/weapon/UI_EquipIcon_Sword_Sashimi.png"
  },
  {
    "id": 11306,
    "name": "Skyrider Sword",
    "type_main": "ITEM_WEAPON",
    "type_sub": "WEAPON_SWORD_ONE_HAND",
    "rank": 3,
    "img": "/image/game/genshin/weapon/UI_EquipIcon_Sword_Mitsurugi.png"
  },
  {
    "id": 11401,
    "name": "Favonius Sword",
    "type_main": "ITEM_WEAPON",
    "type_sub": "WEAPON_SWORD_ONE_HAND",
    "rank": 4,
    "img": "/image/game/genshin/weapon/UI_EquipIcon_Sword_Zephyrus.png"
  },
  {
    "id": 11402,
    "name": "The Flute",
    "type_main": "ITEM_WEAPON",
    "type_sub": "WEAPON_SWORD_ONE_HAND",
    "rank": 4,
    "img": "/image/game/genshin/weapon/UI_EquipIcon_Sword_Troupe.png"
  },
  {
    "id": 11403,
    "name": "Sacrificial Sword",
    "type_main": "ITEM_WEAPON",
    "type_sub": "WEAPON_SWORD_ONE_HAND",
    "rank": 4,
    "img": "/image/game/genshin/weapon/UI_EquipIcon_Sword_Fossil.png"
  },
  {
    "id": 11404,
    "name": "Royal Longsword",
    "type_main": "ITEM_WEAPON",
    "type_sub": "WEAPON_SWORD_ONE_HAND",
    "rank": 4,
    "img": "/image/game/genshin/weapon/UI_EquipIcon_Sword_Theocrat.png"
  },
  {
    "id": 11405,
    "name": "Lion's Roar",
    "type_main": "ITEM_WEAPON",
    "type_sub": "WEAPON_SWORD_ONE_HAND",
    "rank": 4,
    "img": "/image/game/genshin/weapon/UI_EquipIcon_Sword_Rockkiller.png"
  },
  {
    "id": 11406,
    "name": "Prototype Rancour",
    "type_main": "ITEM_WEAPON",
    "type_sub": "WEAPON_SWORD_ONE_HAND",
    "rank": 4,
    "img": "/image/game/genshin/weapon/UI_EquipIcon_Sword_Proto.png"
  },
  {
    "id": 11407,
    "name": "Iron Sting",
    "type_main": "ITEM_WEAPON",
    "type_sub": "WEAPON_SWORD_ONE_HAND",
    "rank": 4,
    "img": "/image/game/genshin/weapon/UI_EquipIcon_Sword_Exotic.png"
  },
  {
    "id": 11408,
    "name": "Blackcliff Longsword",
    "type_main": "ITEM_WEAPON",
    "type_sub": "WEAPON_SWORD_ONE_HAND",
    "rank": 4,
    "img": "/image/game/genshin/weapon/UI_EquipIcon_Sword_Blackrock.png"
  },
  {
    "id": 11409,
    "name": "The Black Sword",
    "type_main": "ITEM_WEAPON",
    "type_sub": "WEAPON_SWORD_ONE_HAND",
    "rank": 4,
    "img": "/image/game/genshin/weapon/UI_EquipIcon_Sword_Bloodstained.png"
  },
  {
    "id": 11410,
    "name": "The Alley Flash",
    "type_main": "ITEM_WEAPON",
    "type_sub": "WEAPON_SWORD_ONE_HAND",
    "rank": 4,
    "img": "/image/game/genshin/weapon/UI_EquipIcon_Sword_Outlaw.png"
  },
  {
    "id": 11411,
    "name": "N/A",
    "type_main": "ITEM_WEAPON",
    "type_sub": "WEAPON_SWORD_ONE_HAND",
    "rank": 4,
    "img": "/image/game/genshin/weapon/UI_EquipIcon_Sword_Blunt.png"
  },
  {
    "id": 11412,
    "name": "Sword of Descension",
    "type_main": "ITEM_WEAPON",
    "type_sub": "WEAPON_SWORD_ONE_HAND",
    "rank": 4,
    "img": "/image/game/genshin/weapon/UI_EquipIcon_Sword_Psalmus.png"
  },
  {
    "id": 11413,
    "name": "Festering Desire",
    "type_main": "ITEM_WEAPON",
    "type_sub": "WEAPON_SWORD_ONE_HAND",
    "rank": 4,
    "img": "/image/game/genshin/weapon/UI_EquipIcon_Sword_Magnum.png"
  },
  {
    "id": 11414,
    "name": "Amenoma Kageuchi",
    "type_main": "ITEM_WEAPON",
    "type_sub": "WEAPON_SWORD_ONE_HAND",
    "rank": 4,
    "img": "/image/game/genshin/weapon/UI_EquipIcon_Sword_Bakufu.png"
  },
  {
    "id": 11415,
    "name": "Cinnabar Spindle",
    "type_main": "ITEM_WEAPON",
    "type_sub": "WEAPON_SWORD_ONE_HAND",
    "rank": 4,
    "img": "/image/game/genshin/weapon/UI_EquipIcon_Sword_Opus.png"
  },
  {
    "id": 11416,
    "name": "Kagotsurube Isshin",
    "type_main": "ITEM_WEAPON",
    "type_sub": "WEAPON_SWORD_ONE_HAND",
    "rank": 4,
    "img": "/image/game/genshin/weapon/UI_EquipIcon_Sword_Youtou.png"
  },
  {
    "id": 11417,
    "name": "Sapwood Blade",
    "type_main": "ITEM_WEAPON",
    "type_sub": "WEAPON_SWORD_ONE_HAND",
    "rank": 4,
    "img": "/image/game/genshin/weapon/UI_EquipIcon_Sword_Arakalari.png"
  },
  {
    "id": 11418,
    "name": "Xiphos' Moonlight",
    "type_main": "ITEM_WEAPON",
    "type_sub": "WEAPON_SWORD_ONE_HAND",
    "rank": 4,
    "img": "/image/game/genshin/weapon/UI_EquipIcon_Sword_Pleroma.png"
  },
  {
    "id": 11419,
    "name": "Prized Isshin Blade",
    "type_main": "ITEM_WEAPON",
    "type_sub": "WEAPON_SWORD_ONE_HAND",
    "rank": 4,
    "img": "/image/game/genshin/weapon/UI_EquipIcon_Sword_YoutouEnchanted.png"
  },
  {
    "id": 11420,
    "name": "Prized Isshin Blade",
    "type_main": "ITEM_WEAPON",
    "type_sub": "WEAPON_SWORD_ONE_HAND",
    "rank": 4,
    "img": "/image/game/genshin/weapon/UI_EquipIcon_Sword_YoutouShattered.png"
  },
  {
    "id": 11421,
    "name": "Prized Isshin Blade",
    "type_main": "ITEM_WEAPON",
    "type_sub": "WEAPON_SWORD_ONE_HAND",
    "rank": 4,
    "img": "/image/game/genshin/weapon/UI_EquipIcon_Sword_YoutouEnchanted.png"
  },
  {
    "id": 11422,
    "name": "Toukabou Shigure",
    "type_main": "ITEM_WEAPON",
    "type_sub": "WEAPON_SWORD_ONE_HAND",
    "rank": 4,
    "img": "/image/game/genshin/weapon/UI_EquipIcon_Sword_Kasabouzu.png"
  },
  {
    "id": 11424,
    "name": "Wolf-Fang",
    "type_main": "ITEM_WEAPON",
    "type_sub": "WEAPON_SWORD_ONE_HAND",
    "rank": 4,
    "img": "/image/game/genshin/weapon/UI_EquipIcon_Sword_Boreas.png"
  },
  {
    "id": 11425,
    "name": "Finale of the Deep",
    "type_main": "ITEM_WEAPON",
    "type_sub": "WEAPON_SWORD_ONE_HAND",
    "rank": 4,
    "img": "/image/game/genshin/weapon/UI_EquipIcon_Sword_Vorpal.png"
  },
  {
    "id": 11426,
    "name": "Fleuve Cendre Ferryman",
    "type_main": "ITEM_WEAPON",
    "type_sub": "WEAPON_SWORD_ONE_HAND",
    "rank": 4,
    "img": "/image/game/genshin/weapon/UI_EquipIcon_Sword_Machination.png"
  },
  {
    "id": 11501,
    "name": "Aquila Favonia",
    "type_main": "ITEM_WEAPON",
    "type_sub": "WEAPON_SWORD_ONE_HAND",
    "rank": 5,
    "img": "/image/game/genshin/weapon/UI_EquipIcon_Sword_Falcon.png"
  },
  {
    "id": 11502,
    "name": "Skyward Blade",
    "type_main": "ITEM_WEAPON",
    "type_sub": "WEAPON_SWORD_ONE_HAND",
    "rank": 5,
    "img": "/image/game/genshin/weapon/UI_EquipIcon_Sword_Dvalin.png"
  },
  {
    "id": 11503,
    "name": "Freedom-Sworn",
    "type_main": "ITEM_WEAPON",
    "type_sub": "WEAPON_SWORD_ONE_HAND",
    "rank": 5,
    "img": "/image/game/genshin/weapon/UI_EquipIcon_Sword_Widsith.png"
  },
  {
    "id": 11504,
    "name": "Summit Shaper",
    "type_main": "ITEM_WEAPON",
    "type_sub": "WEAPON_SWORD_ONE_HAND",
    "rank": 5,
    "img": "/image/game/genshin/weapon/UI_EquipIcon_Sword_Kunwu.png"
  },
  {
    "id": 11505,
    "name": "Primordial Jade Cutter",
    "type_main": "ITEM_WEAPON",
    "type_sub": "WEAPON_SWORD_ONE_HAND",
    "rank": 5,
    "img": "/image/game/genshin/weapon/UI_EquipIcon_Sword_Morax.png"
  },
  {
    "id": 11506,
    "name": "Primordial Jade Cutter",
    "type_main": "ITEM_WEAPON",
    "type_sub": "WEAPON_SWORD_ONE_HAND",
    "rank": 5,
    "img": "/image/game/genshin/weapon/UI_EquipIcon_Sword_Blunt.png"
  },
  {
    "id": 11507,
    "name": "One Side",
    "type_main": "ITEM_WEAPON",
    "type_sub": "WEAPON_SWORD_ONE_HAND",
    "rank": 5,
    "img": "/image/game/genshin/weapon/UI_EquipIcon_Sword_Blunt.png"
  },
  {
    "id": 11508,
    "name": "N/A",
    "type_main": "ITEM_WEAPON",
    "type_sub": "WEAPON_SWORD_ONE_HAND",
    "rank": 5,
    "img": "/image/game/genshin/weapon/UI_EquipIcon_Sword_Blunt.png"
  },
  {
    "id": 11509,
    "name": "Mistsplitter Reforged",
    "type_main": "ITEM_WEAPON",
    "type_sub": "WEAPON_SWORD_ONE_HAND",
    "rank": 5,
    "img": "/image/game/genshin/weapon/UI_EquipIcon_Sword_Narukami.png"
  },
  {
    "id": 11510,
    "name": "Haran Geppaku Futsu",
    "type_main": "ITEM_WEAPON",
    "type_sub": "WEAPON_SWORD_ONE_HAND",
    "rank": 5,
    "img": "/image/game/genshin/weapon/UI_EquipIcon_Sword_Amenoma.png"
  },
  {
    "id": 11511,
    "name": "Key of Khaj-Nisut",
    "type_main": "ITEM_WEAPON",
    "type_sub": "WEAPON_SWORD_ONE_HAND",
    "rank": 5,
    "img": "/image/game/genshin/weapon/UI_EquipIcon_Sword_Deshret.png"
  },
  {
    "id": 11512,
    "name": "Light of Foliar Incision",
    "type_main": "ITEM_WEAPON",
    "type_sub": "WEAPON_SWORD_ONE_HAND",
    "rank": 5,
    "img": "/image/game/genshin/weapon/UI_EquipIcon_Sword_Ayus.png"
  },
  {
    "id": 12101,
    "name": "Waster Greatsword",
    "type_main": "ITEM_WEAPON",
    "type_sub": "WEAPON_CLAYMORE",
    "rank": 1,
    "img": "/image/game/genshin/weapon/UI_EquipIcon_Claymore_Aniki.png"
  },
  {
    "id": 12201,
    "name": "Old Merc's Pal",
    "type_main": "ITEM_WEAPON",
    "type_sub": "WEAPON_CLAYMORE",
    "rank": 2,
    "img": "/image/game/genshin/weapon/UI_EquipIcon_Claymore_Oyaji.png"
  },
  {
    "id": 12301,
    "name": "Ferrous Shadow",
    "type_main": "ITEM_WEAPON",
    "type_sub": "WEAPON_CLAYMORE",
    "rank": 3,
    "img": "/image/game/genshin/weapon/UI_EquipIcon_Claymore_Glaive.png"
  },
  {
    "id": 12302,
    "name": "Bloodtainted Greatsword",
    "type_main": "ITEM_WEAPON",
    "type_sub": "WEAPON_CLAYMORE",
    "rank": 3,
    "img": "/image/game/genshin/weapon/UI_EquipIcon_Claymore_Siegfry.png"
  },
  {
    "id": 12303,
    "name": "White Iron Greatsword",
    "type_main": "ITEM_WEAPON",
    "type_sub": "WEAPON_CLAYMORE",
    "rank": 3,
    "img": "/image/game/genshin/weapon/UI_EquipIcon_Claymore_Tin.png"
  },
  {
    "id": 12304,
    "name": "Quartz",
    "type_main": "ITEM_WEAPON",
    "type_sub": "WEAPON_CLAYMORE",
    "rank": 3,
    "img": "/image/game/genshin/weapon/UI_EquipIcon_Claymore_Quartz.png"
  },
  {
    "id": 12305,
    "name": "Debate Club",
    "type_main": "ITEM_WEAPON",
    "type_sub": "WEAPON_CLAYMORE",
    "rank": 3,
    "img": "/image/game/genshin/weapon/UI_EquipIcon_Claymore_Reasoning.png"
  },
  {
    "id": 12306,
    "name": "Skyrider Greatsword",
    "type_main": "ITEM_WEAPON",
    "type_sub": "WEAPON_CLAYMORE",
    "rank": 3,
    "img": "/image/game/genshin/weapon/UI_EquipIcon_Claymore_Mitsurugi.png"
  },
  {
    "id": 12401,
    "name": "Favonius Greatsword",
    "type_main": "ITEM_WEAPON",
    "type_sub": "WEAPON_CLAYMORE",
    "rank": 4,
    "img": "/image/game/genshin/weapon/UI_EquipIcon_Claymore_Zephyrus.png"
  },
  {
    "id": 12402,
    "name": "The Bell",
    "type_main": "ITEM_WEAPON",
    "type_sub": "WEAPON_CLAYMORE",
    "rank": 4,
    "img": "/image/game/genshin/weapon/UI_EquipIcon_Claymore_Troupe.png"
  },
  {
    "id": 12403,
    "name": "Sacrificial Greatsword",
    "type_main": "ITEM_WEAPON",
    "type_sub": "WEAPON_CLAYMORE",
    "rank": 4,
    "img": "/image/game/genshin/weapon/UI_EquipIcon_Claymore_Fossil.png"
  },
  {
    "id": 12404,
    "name": "Royal Greatsword",
    "type_main": "ITEM_WEAPON",
    "type_sub": "WEAPON_CLAYMORE",
    "rank": 4,
    "img": "/image/game/genshin/weapon/UI_EquipIcon_Claymore_Theocrat.png"
  },
  {
    "id": 12405,
    "name": "Rainslasher",
    "type_main": "ITEM_WEAPON",
    "type_sub": "WEAPON_CLAYMORE",
    "rank": 4,
    "img": "/image/game/genshin/weapon/UI_EquipIcon_Claymore_Perdue.png"
  },
  {
    "id": 12406,
    "name": "Prototype Archaic",
    "type_main": "ITEM_WEAPON",
    "type_sub": "WEAPON_CLAYMORE",
    "rank": 4,
    "img": "/image/game/genshin/weapon/UI_EquipIcon_Claymore_Proto.png"
  },
  {
    "id": 12407,
    "name": "Whiteblind",
    "type_main": "ITEM_WEAPON",
    "type_sub": "WEAPON_CLAYMORE",
    "rank": 4,
    "img": "/image/game/genshin/weapon/UI_EquipIcon_Claymore_Exotic.png"
  },
  {
    "id": 12408,
    "name": "Blackcliff Slasher",
    "type_main": "ITEM_WEAPON",
    "type_sub": "WEAPON_CLAYMORE",
    "rank": 4,
    "img": "/image/game/genshin/weapon/UI_EquipIcon_Claymore_Blackrock.png"
  },
  {
    "id": 12409,
    "name": "Serpent Spine",
    "type_main": "ITEM_WEAPON",
    "type_sub": "WEAPON_CLAYMORE",
    "rank": 4,
    "img": "/image/game/genshin/weapon/UI_EquipIcon_Claymore_Kione.png"
  },
  {
    "id": 12410,
    "name": "Lithic Blade",
    "type_main": "ITEM_WEAPON",
    "type_sub": "WEAPON_CLAYMORE",
    "rank": 4,
    "img": "/image/game/genshin/weapon/UI_EquipIcon_Claymore_Lapis.png"
  },
  {
    "id": 12411,
    "name": "Snow-Tombed Starsilver",
    "type_main": "ITEM_WEAPON",
    "type_sub": "WEAPON_CLAYMORE",
    "rank": 4,
    "img": "/image/game/genshin/weapon/UI_EquipIcon_Claymore_Dragonfell.png"
  },
  {
    "id": 12412,
    "name": "Luxurious Sea-Lord",
    "type_main": "ITEM_WEAPON",
    "type_sub": "WEAPON_CLAYMORE",
    "rank": 4,
    "img": "/image/game/genshin/weapon/UI_EquipIcon_Claymore_MillenniaTuna.png"
  },
  {
    "id": 12414,
    "name": "Katsuragikiri Nagamasa",
    "type_main": "ITEM_WEAPON",
    "type_sub": "WEAPON_CLAYMORE",
    "rank": 4,
    "img": "/image/game/genshin/weapon/UI_EquipIcon_Claymore_Bakufu.png"
  },
  {
    "id": 12415,
    "name": "Makhaira Aquamarine",
    "type_main": "ITEM_WEAPON",
    "type_sub": "WEAPON_CLAYMORE",
    "rank": 4,
    "img": "/image/game/genshin/weapon/UI_EquipIcon_Claymore_Pleroma.png"
  },
  {
    "id": 12416,
    "name": "Akuoumaru",
    "type_main": "ITEM_WEAPON",
    "type_sub": "WEAPON_CLAYMORE",
    "rank": 4,
    "img": "/image/game/genshin/weapon/UI_EquipIcon_Claymore_Maria.png"
  },
  {
    "id": 12417,
    "name": "Forest Regalia",
    "type_main": "ITEM_WEAPON",
    "type_sub": "WEAPON_CLAYMORE",
    "rank": 4,
    "img": "/image/game/genshin/weapon/UI_EquipIcon_Claymore_Arakalari.png"
  },
  {
    "id": 12418,
    "name": "Mailed Flower",
    "type_main": "ITEM_WEAPON",
    "type_sub": "WEAPON_CLAYMORE",
    "rank": 4,
    "img": "/image/game/genshin/weapon/UI_EquipIcon_Claymore_Fleurfair.png"
  },
  {
    "id": 12424,
    "name": "Talking Stick",
    "type_main": "ITEM_WEAPON",
    "type_sub": "WEAPON_CLAYMORE",
    "rank": 4,
    "img": "/image/game/genshin/weapon/UI_EquipIcon_Claymore_BeastTamer.png"
  },
  {
    "id": 12425,
    "name": "Tidal Shadow",
    "type_main": "ITEM_WEAPON",
    "type_sub": "WEAPON_CLAYMORE",
    "rank": 4,
    "img": "/image/game/genshin/weapon/UI_EquipIcon_Claymore_Vorpal.png"
  },
  {
    "id": 12501,
    "name": "Skyward Pride",
    "type_main": "ITEM_WEAPON",
    "type_sub": "WEAPON_CLAYMORE",
    "rank": 5,
    "img": "/image/game/genshin/weapon/UI_EquipIcon_Claymore_Dvalin.png"
  },
  {
    "id": 12502,
    "name": "Wolf's Gravestone",
    "type_main": "ITEM_WEAPON",
    "type_sub": "WEAPON_CLAYMORE",
    "rank": 5,
    "img": "/image/game/genshin/weapon/UI_EquipIcon_Claymore_Wolfmound.png"
  },
  {
    "id": 12503,
    "name": "Song of Broken Pines",
    "type_main": "ITEM_WEAPON",
    "type_sub": "WEAPON_CLAYMORE",
    "rank": 5,
    "img": "/image/game/genshin/weapon/UI_EquipIcon_Claymore_Widsith.png"
  },
  {
    "id": 12504,
    "name": "The Unforged",
    "type_main": "ITEM_WEAPON",
    "type_sub": "WEAPON_CLAYMORE",
    "rank": 5,
    "img": "/image/game/genshin/weapon/UI_EquipIcon_Claymore_Kunwu.png"
  },
  {
    "id": 12505,
    "name": "Primordial Jade Greatsword",
    "type_main": "ITEM_WEAPON",
    "type_sub": "WEAPON_CLAYMORE",
    "rank": 5,
    "img": "/image/game/genshin/weapon/UI_EquipIcon_Claymore_Aniki.png"
  },
  {
    "id": 12506,
    "name": "Historia Diferente",
    "type_main": "ITEM_WEAPON",
    "type_sub": "WEAPON_CLAYMORE",
    "rank": 5,
    "img": "/image/game/genshin/weapon/UI_EquipIcon_Claymore_Aniki.png"
  },
  {
    "id": 12508,
    "name": "N/A",
    "type_main": "ITEM_WEAPON",
    "type_sub": "WEAPON_CLAYMORE",
    "rank": 5,
    "img": "/image/game/genshin/weapon/UI_EquipIcon_Claymore_Aniki.png"
  },
  {
    "id": 12509,
    "name": "N/A",
    "type_main": "ITEM_WEAPON",
    "type_sub": "WEAPON_CLAYMORE",
    "rank": 5,
    "img": "/image/game/genshin/weapon/UI_EquipIcon_Claymore_Aniki.png"
  },
  {
    "id": 12510,
    "name": "Redhorn Stonethresher",
    "type_main": "ITEM_WEAPON",
    "type_sub": "WEAPON_CLAYMORE",
    "rank": 5,
    "img": "/image/game/genshin/weapon/UI_EquipIcon_Claymore_Itadorimaru.png"
  },
  {
    "id": 12511,
    "name": "Beacon of the Reed Sea",
    "type_main": "ITEM_WEAPON",
    "type_sub": "WEAPON_CLAYMORE",
    "rank": 5,
    "img": "/image/game/genshin/weapon/UI_EquipIcon_Claymore_Deshret.png"
  },
  {
    "id": 13101,
    "name": "Beginner's Protector",
    "type_main": "ITEM_WEAPON",
    "type_sub": "WEAPON_POLE",
    "rank": 1,
    "img": "/image/game/genshin/weapon/UI_EquipIcon_Pole_Gewalt.png"
  },
  {
    "id": 13201,
    "name": "Iron Point",
    "type_main": "ITEM_WEAPON",
    "type_sub": "WEAPON_POLE",
    "rank": 2,
    "img": "/image/game/genshin/weapon/UI_EquipIcon_Pole_Rod.png"
  },
  {
    "id": 13301,
    "name": "White Tassel",
    "type_main": "ITEM_WEAPON",
    "type_sub": "WEAPON_POLE",
    "rank": 3,
    "img": "/image/game/genshin/weapon/UI_EquipIcon_Pole_Ruby.png"
  },
  {
    "id": 13302,
    "name": "Halberd",
    "type_main": "ITEM_WEAPON",
    "type_sub": "WEAPON_POLE",
    "rank": 3,
    "img": "/image/game/genshin/weapon/UI_EquipIcon_Pole_Halberd.png"
  },
  {
    "id": 13303,
    "name": "Black Tassel",
    "type_main": "ITEM_WEAPON",
    "type_sub": "WEAPON_POLE",
    "rank": 3,
    "img": "/image/game/genshin/weapon/UI_EquipIcon_Pole_Noire.png"
  },
  {
    "id": 13304,
    "name": "The Flagstaff",
    "type_main": "ITEM_WEAPON",
    "type_sub": "WEAPON_POLE",
    "rank": 3,
    "img": "/image/game/genshin/weapon/UI_EquipIcon_Pole_Flagpole.png"
  },
  {
    "id": 13401,
    "name": "Dragon's Bane",
    "type_main": "ITEM_WEAPON",
    "type_sub": "WEAPON_POLE",
    "rank": 4,
    "img": "/image/game/genshin/weapon/UI_EquipIcon_Pole_Stardust.png"
  },
  {
    "id": 13402,
    "name": "Prototype Starglitter",
    "type_main": "ITEM_WEAPON",
    "type_sub": "WEAPON_POLE",
    "rank": 4,
    "img": "/image/game/genshin/weapon/UI_EquipIcon_Pole_Proto.png"
  },
  {
    "id": 13403,
    "name": "Crescent Pike",
    "type_main": "ITEM_WEAPON",
    "type_sub": "WEAPON_POLE",
    "rank": 4,
    "img": "/image/game/genshin/weapon/UI_EquipIcon_Pole_Exotic.png"
  },
  {
    "id": 13404,
    "name": "Blackcliff Pole",
    "type_main": "ITEM_WEAPON",
    "type_sub": "WEAPON_POLE",
    "rank": 4,
    "img": "/image/game/genshin/weapon/UI_EquipIcon_Pole_Blackrock.png"
  },
  {
    "id": 13405,
    "name": "Deathmatch",
    "type_main": "ITEM_WEAPON",
    "type_sub": "WEAPON_POLE",
    "rank": 4,
    "img": "/image/game/genshin/weapon/UI_EquipIcon_Pole_Gladiator.png"
  },
  {
    "id": 13406,
    "name": "Lithic Spear",
    "type_main": "ITEM_WEAPON",
    "type_sub": "WEAPON_POLE",
    "rank": 4,
    "img": "/image/game/genshin/weapon/UI_EquipIcon_Pole_Lapis.png"
  },
  {
    "id": 13407,
    "name": "Favonius Lance",
    "type_main": "ITEM_WEAPON",
    "type_sub": "WEAPON_POLE",
    "rank": 4,
    "img": "/image/game/genshin/weapon/UI_EquipIcon_Pole_Zephyrus.png"
  },
  {
    "id": 13408,
    "name": "Royal Spear",
    "type_main": "ITEM_WEAPON",
    "type_sub": "WEAPON_POLE",
    "rank": 4,
    "img": "/image/game/genshin/weapon/UI_EquipIcon_Pole_Theocrat.png"
  },
  {
    "id": 13409,
    "name": "Dragonspine Spear",
    "type_main": "ITEM_WEAPON",
    "type_sub": "WEAPON_POLE",
    "rank": 4,
    "img": "/image/game/genshin/weapon/UI_EquipIcon_Pole_Everfrost.png"
  },
  {
    "id": 13414,
    "name": "Kitain Cross Spear",
    "type_main": "ITEM_WEAPON",
    "type_sub": "WEAPON_POLE",
    "rank": 4,
    "img": "/image/game/genshin/weapon/UI_EquipIcon_Pole_Bakufu.png"
  },
  {
    "id": 13415,
    "name": "\"The Catch\"",
    "type_main": "ITEM_WEAPON",
    "type_sub": "WEAPON_POLE",
    "rank": 4,
    "img": "/image/game/genshin/weapon/UI_EquipIcon_Pole_Mori.png"
  },
  {
    "id": 13416,
    "name": "Wavebreaker's Fin",
    "type_main": "ITEM_WEAPON",
    "type_sub": "WEAPON_POLE",
    "rank": 4,
    "img": "/image/game/genshin/weapon/UI_EquipIcon_Pole_Maria.png"
  },
  {
    "id": 13417,
    "name": "Moonpiercer",
    "type_main": "ITEM_WEAPON",
    "type_sub": "WEAPON_POLE",
    "rank": 4,
    "img": "/image/game/genshin/weapon/UI_EquipIcon_Pole_Arakalari.png"
  },
  {
    "id": 13419,
    "name": "Missive Windspear",
    "type_main": "ITEM_WEAPON",
    "type_sub": "WEAPON_POLE",
    "rank": 4,
    "img": "/image/game/genshin/weapon/UI_EquipIcon_Pole_Windvane.png"
  },
  {
    "id": 13424,
    "name": "Ballad of the Fjords",
    "type_main": "ITEM_WEAPON",
    "type_sub": "WEAPON_POLE",
    "rank": 4,
    "img": "/image/game/genshin/weapon/UI_EquipIcon_Pole_Shanty.png"
  },
  {
    "id": 13425,
    "name": "Rightful Reward",
    "type_main": "ITEM_WEAPON",
    "type_sub": "WEAPON_POLE",
    "rank": 4,
    "img": "/image/game/genshin/weapon/UI_EquipIcon_Pole_Vorpal.png"
  },
  {
    "id": 13501,
    "name": "Staff of Homa",
    "type_main": "ITEM_WEAPON",
    "type_sub": "WEAPON_POLE",
    "rank": 5,
    "img": "/image/game/genshin/weapon/UI_EquipIcon_Pole_Homa.png"
  },
  {
    "id": 13502,
    "name": "Skyward Spine",
    "type_main": "ITEM_WEAPON",
    "type_sub": "WEAPON_POLE",
    "rank": 5,
    "img": "/image/game/genshin/weapon/UI_EquipIcon_Pole_Dvalin.png"
  },
  {
    "id": 13503,
    "name": "N/A",
    "type_main": "ITEM_WEAPON",
    "type_sub": "WEAPON_POLE",
    "rank": 5,
    "img": "/image/game/genshin/weapon/UI_EquipIcon_Pole_Gewalt.png"
  },
  {
    "id": 13504,
    "name": "Vortex Vanquisher",
    "type_main": "ITEM_WEAPON",
    "type_sub": "WEAPON_POLE",
    "rank": 5,
    "img": "/image/game/genshin/weapon/UI_EquipIcon_Pole_Kunwu.png"
  },
  {
    "id": 13505,
    "name": "Primordial Jade Winged-Spear",
    "type_main": "ITEM_WEAPON",
    "type_sub": "WEAPON_POLE",
    "rank": 5,
    "img": "/image/game/genshin/weapon/UI_EquipIcon_Pole_Morax.png"
  },
  {
    "id": 13506,
    "name": "Deicide",
    "type_main": "ITEM_WEAPON",
    "type_sub": "WEAPON_POLE",
    "rank": 5,
    "img": "/image/game/genshin/weapon/UI_EquipIcon_Pole_Gewalt.png"
  },
  {
    "id": 13507,
    "name": "Calamity Queller",
    "type_main": "ITEM_WEAPON",
    "type_sub": "WEAPON_POLE",
    "rank": 5,
    "img": "/image/game/genshin/weapon/UI_EquipIcon_Pole_Santika.png"
  },
  {
    "id": 13509,
    "name": "Engulfing Lightning",
    "type_main": "ITEM_WEAPON",
    "type_sub": "WEAPON_POLE",
    "rank": 5,
    "img": "/image/game/genshin/weapon/UI_EquipIcon_Pole_Narukami.png"
  },
  {
    "id": 13511,
    "name": "Staff of the Scarlet Sands",
    "type_main": "ITEM_WEAPON",
    "type_sub": "WEAPON_POLE",
    "rank": 5,
    "img": "/image/game/genshin/weapon/UI_EquipIcon_Pole_Deshret.png"
  },
  {
    "id": 14101,
    "name": "Apprentice's Notes",
    "type_main": "ITEM_WEAPON",
    "type_sub": "WEAPON_CATALYST",
    "rank": 1,
    "img": "/image/game/genshin/weapon/UI_EquipIcon_Catalyst_Apprentice.png"
  },
  {
    "id": 14201,
    "name": "Pocket Grimoire",
    "type_main": "ITEM_WEAPON",
    "type_sub": "WEAPON_CATALYST",
    "rank": 2,
    "img": "/image/game/genshin/weapon/UI_EquipIcon_Catalyst_Pocket.png"
  },
  {
    "id": 14301,
    "name": "Magic Guide",
    "type_main": "ITEM_WEAPON",
    "type_sub": "WEAPON_CATALYST",
    "rank": 3,
    "img": "/image/game/genshin/weapon/UI_EquipIcon_Catalyst_Intro.png"
  },
  {
    "id": 14302,
    "name": "Thrilling Tales of Dragon Slayers",
    "type_main": "ITEM_WEAPON",
    "type_sub": "WEAPON_CATALYST",
    "rank": 3,
    "img": "/image/game/genshin/weapon/UI_EquipIcon_Catalyst_Pulpfic.png"
  },
  {
    "id": 14303,
    "name": "Otherworldly Story",
    "type_main": "ITEM_WEAPON",
    "type_sub": "WEAPON_CATALYST",
    "rank": 3,
    "img": "/image/game/genshin/weapon/UI_EquipIcon_Catalyst_Lightnov.png"
  },
  {
    "id": 14304,
    "name": "Emerald Orb",
    "type_main": "ITEM_WEAPON",
    "type_sub": "WEAPON_CATALYST",
    "rank": 3,
    "img": "/image/game/genshin/weapon/UI_EquipIcon_Catalyst_Jade.png"
  },
  {
    "id": 14305,
    "name": "Twin Nephrite",
    "type_main": "ITEM_WEAPON",
    "type_sub": "WEAPON_CATALYST",
    "rank": 3,
    "img": "/image/game/genshin/weapon/UI_EquipIcon_Catalyst_Phoney.png"
  },
  {
    "id": 14306,
    "name": "Amber Bead",
    "type_main": "ITEM_WEAPON",
    "type_sub": "WEAPON_CATALYST",
    "rank": 3,
    "img": "/image/game/genshin/weapon/UI_EquipIcon_Catalyst_Amber.png"
  },
  {
    "id": 14401,
    "name": "Favonius Codex",
    "type_main": "ITEM_WEAPON",
    "type_sub": "WEAPON_CATALYST",
    "rank": 4,
    "img": "/image/game/genshin/weapon/UI_EquipIcon_Catalyst_Zephyrus.png"
  },
  {
    "id": 14402,
    "name": "The Widsith",
    "type_main": "ITEM_WEAPON",
    "type_sub": "WEAPON_CATALYST",
    "rank": 4,
    "img": "/image/game/genshin/weapon/UI_EquipIcon_Catalyst_Troupe.png"
  },
  {
    "id": 14403,
    "name": "Sacrificial Fragments",
    "type_main": "ITEM_WEAPON",
    "type_sub": "WEAPON_CATALYST",
    "rank": 4,
    "img": "/image/game/genshin/weapon/UI_EquipIcon_Catalyst_Fossil.png"
  },
  {
    "id": 14404,
    "name": "Royal Grimoire",
    "type_main": "ITEM_WEAPON",
    "type_sub": "WEAPON_CATALYST",
    "rank": 4,
    "img": "/image/game/genshin/weapon/UI_EquipIcon_Catalyst_Theocrat.png"
  },
  {
    "id": 14405,
    "name": "Solar Pearl",
    "type_main": "ITEM_WEAPON",
    "type_sub": "WEAPON_CATALYST",
    "rank": 4,
    "img": "/image/game/genshin/weapon/UI_EquipIcon_Catalyst_Resurrection.png"
  },
  {
    "id": 14406,
    "name": "Prototype Amber",
    "type_main": "ITEM_WEAPON",
    "type_sub": "WEAPON_CATALYST",
    "rank": 4,
    "img": "/image/game/genshin/weapon/UI_EquipIcon_Catalyst_Proto.png"
  },
  {
    "id": 14407,
    "name": "Mappa Mare",
    "type_main": "ITEM_WEAPON",
    "type_sub": "WEAPON_CATALYST",
    "rank": 4,
    "img": "/image/game/genshin/weapon/UI_EquipIcon_Catalyst_Exotic.png"
  },
  {
    "id": 14408,
    "name": "Blackcliff Amulet",
    "type_main": "ITEM_WEAPON",
    "type_sub": "WEAPON_CATALYST",
    "rank": 4,
    "img": "/image/game/genshin/weapon/UI_EquipIcon_Catalyst_Blackrock.png"
  },
  {
    "id": 14409,
    "name": "Eye of Perception",
    "type_main": "ITEM_WEAPON",
    "type_sub": "WEAPON_CATALYST",
    "rank": 4,
    "img": "/image/game/genshin/weapon/UI_EquipIcon_Catalyst_Truelens.png"
  },
  {
    "id": 14410,
    "name": "Wine and Song",
    "type_main": "ITEM_WEAPON",
    "type_sub": "WEAPON_CATALYST",
    "rank": 4,
    "img": "/image/game/genshin/weapon/UI_EquipIcon_Catalyst_Outlaw.png"
  },
  {
    "id": 14411,
    "name": "N/A",
    "type_main": "ITEM_WEAPON",
    "type_sub": "WEAPON_CATALYST",
    "rank": 4,
    "img": "/image/game/genshin/weapon/UI_EquipIcon_Catalyst_Apprentice.png"
  },
  {
    "id": 14412,
    "name": "Frostbearer",
    "type_main": "ITEM_WEAPON",
    "type_sub": "WEAPON_CATALYST",
    "rank": 4,
    "img": "/image/game/genshin/weapon/UI_EquipIcon_Catalyst_Everfrost.png"
  },
  {
    "id": 14413,
    "name": "Dodoco Tales",
    "type_main": "ITEM_WEAPON",
    "type_sub": "WEAPON_CATALYST",
    "rank": 4,
    "img": "/image/game/genshin/weapon/UI_EquipIcon_Catalyst_Ludiharpastum.png"
  },
  {
    "id": 14414,
    "name": "Hakushin Ring",
    "type_main": "ITEM_WEAPON",
    "type_sub": "WEAPON_CATALYST",
    "rank": 4,
    "img": "/image/game/genshin/weapon/UI_EquipIcon_Catalyst_Bakufu.png"
  },
  {
    "id": 14415,
    "name": "Oathsworn Eye",
    "type_main": "ITEM_WEAPON",
    "type_sub": "WEAPON_CATALYST",
    "rank": 4,
    "img": "/image/game/genshin/weapon/UI_EquipIcon_Catalyst_Jyanome.png"
  },
  {
    "id": 14416,
    "name": "Wandering Evenstar",
    "type_main": "ITEM_WEAPON",
    "type_sub": "WEAPON_CATALYST",
    "rank": 4,
    "img": "/image/game/genshin/weapon/UI_EquipIcon_Catalyst_Pleroma.png"
  },
  {
    "id": 14417,
    "name": "Fruit of Fulfillment",
    "type_main": "ITEM_WEAPON",
    "type_sub": "WEAPON_CATALYST",
    "rank": 4,
    "img": "/image/game/genshin/weapon/UI_EquipIcon_Catalyst_Arakalari.png"
  },
  {
    "id": 14424,
    "name": "Sacrificial Jade",
    "type_main": "ITEM_WEAPON",
    "type_sub": "WEAPON_CATALYST",
    "rank": 4,
    "img": "/image/game/genshin/weapon/UI_EquipIcon_Catalyst_Yue.png"
  },
  {
    "id": 14425,
    "name": "Flowing Purity",
    "type_main": "ITEM_WEAPON",
    "type_sub": "WEAPON_CATALYST",
    "rank": 4,
    "img": "/image/game/genshin/weapon/UI_EquipIcon_Catalyst_Vorpal.png"
  },
  {
    "id": 14501,
    "name": "Skyward Atlas",
    "type_main": "ITEM_WEAPON",
    "type_sub": "WEAPON_CATALYST",
    "rank": 5,
    "img": "/image/game/genshin/weapon/UI_EquipIcon_Catalyst_Dvalin.png"
  },
  {
    "id": 14502,
    "name": "Lost Prayer to the Sacred Winds",
    "type_main": "ITEM_WEAPON",
    "type_sub": "WEAPON_CATALYST",
    "rank": 5,
    "img": "/image/game/genshin/weapon/UI_EquipIcon_Catalyst_Fourwinds.png"
  },
  {
    "id": 14503,
    "name": "Lost Ballade",
    "type_main": "ITEM_WEAPON",
    "type_sub": "WEAPON_CATALYST",
    "rank": 5,
    "img": "/image/game/genshin/weapon/UI_EquipIcon_Catalyst_Apprentice.png"
  },
  {
    "id": 14504,
    "name": "Memory of Dust",
    "type_main": "ITEM_WEAPON",
    "type_sub": "WEAPON_CATALYST",
    "rank": 5,
    "img": "/image/game/genshin/weapon/UI_EquipIcon_Catalyst_Kunwu.png"
  },
  {
    "id": 14505,
    "name": "Jadefall's Splendor",
    "type_main": "ITEM_WEAPON",
    "type_sub": "WEAPON_CATALYST",
    "rank": 5,
    "img": "/image/game/genshin/weapon/UI_EquipIcon_Catalyst_Morax.png"
  },
  {
    "id": 14506,
    "name": "Everlasting Moonglow",
    "type_main": "ITEM_WEAPON",
    "type_sub": "WEAPON_CATALYST",
    "rank": 5,
    "img": "/image/game/genshin/weapon/UI_EquipIcon_Catalyst_Kaleido.png"
  },
  {
    "id": 14508,
    "name": "N/A",
    "type_main": "ITEM_WEAPON",
    "type_sub": "WEAPON_CATALYST",
    "rank": 5,
    "img": "/image/game/genshin/weapon/UI_EquipIcon_Catalyst_Apprentice.png"
  },
  {
    "id": 14509,
    "name": "Kagura's Verity",
    "type_main": "ITEM_WEAPON",
    "type_sub": "WEAPON_CATALYST",
    "rank": 5,
    "img": "/image/game/genshin/weapon/UI_EquipIcon_Catalyst_Narukami.png"
  },
  {
    "id": 14511,
    "name": "A Thousand Floating Dreams",
    "type_main": "ITEM_WEAPON",
    "type_sub": "WEAPON_CATALYST",
    "rank": 5,
    "img": "/image/game/genshin/weapon/UI_EquipIcon_Catalyst_Ayus.png"
  },
  {
    "id": 14512,
    "name": "Tulaytullah's Remembrance",
    "type_main": "ITEM_WEAPON",
    "type_sub": "WEAPON_CATALYST",
    "rank": 5,
    "img": "/image/game/genshin/weapon/UI_EquipIcon_Catalyst_Alaya.png"
  },
  {
    "id": 15101,
    "name": "Hunter's Bow",
    "type_main": "ITEM_WEAPON",
    "type_sub": "WEAPON_BOW",
    "rank": 1,
    "img": "/image/game/genshin/weapon/UI_EquipIcon_Bow_Hunters.png"
  },
  {
    "id": 15201,
    "name": "Seasoned Hunter's Bow",
    "type_main": "ITEM_WEAPON",
    "type_sub": "WEAPON_BOW",
    "rank": 2,
    "img": "/image/game/genshin/weapon/UI_EquipIcon_Bow_Old.png"
  },
  {
    "id": 15301,
    "name": "Raven Bow",
    "type_main": "ITEM_WEAPON",
    "type_sub": "WEAPON_BOW",
    "rank": 3,
    "img": "/image/game/genshin/weapon/UI_EquipIcon_Bow_Crowfeather.png"
  },
  {
    "id": 15302,
    "name": "Sharpshooter's Oath",
    "type_main": "ITEM_WEAPON",
    "type_sub": "WEAPON_BOW",
    "rank": 3,
    "img": "/image/game/genshin/weapon/UI_EquipIcon_Bow_Arjuna.png"
  },
  {
    "id": 15303,
    "name": "Recurve Bow",
    "type_main": "ITEM_WEAPON",
    "type_sub": "WEAPON_BOW",
    "rank": 3,
    "img": "/image/game/genshin/weapon/UI_EquipIcon_Bow_Curve.png"
  },
  {
    "id": 15304,
    "name": "Slingshot",
    "type_main": "ITEM_WEAPON",
    "type_sub": "WEAPON_BOW",
    "rank": 3,
    "img": "/image/game/genshin/weapon/UI_EquipIcon_Bow_Sling.png"
  },
  {
    "id": 15305,
    "name": "Messenger",
    "type_main": "ITEM_WEAPON",
    "type_sub": "WEAPON_BOW",
    "rank": 3,
    "img": "/image/game/genshin/weapon/UI_EquipIcon_Bow_Msg.png"
  },
  {
    "id": 15306,
    "name": "Ebony Bow",
    "type_main": "ITEM_WEAPON",
    "type_sub": "WEAPON_BOW",
    "rank": 3,
    "img": "/image/game/genshin/weapon/UI_EquipIcon_Bow_Hardwood.png"
  },
  {
    "id": 15401,
    "name": "Favonius Warbow",
    "type_main": "ITEM_WEAPON",
    "type_sub": "WEAPON_BOW",
    "rank": 4,
    "img": "/image/game/genshin/weapon/UI_EquipIcon_Bow_Zephyrus.png"
  },
  {
    "id": 15402,
    "name": "The Stringless",
    "type_main": "ITEM_WEAPON",
    "type_sub": "WEAPON_BOW",
    "rank": 4,
    "img": "/image/game/genshin/weapon/UI_EquipIcon_Bow_Troupe.png"
  },
  {
    "id": 15403,
    "name": "Sacrificial Bow",
    "type_main": "ITEM_WEAPON",
    "type_sub": "WEAPON_BOW",
    "rank": 4,
    "img": "/image/game/genshin/weapon/UI_EquipIcon_Bow_Fossil.png"
  },
  {
    "id": 15404,
    "name": "Royal Bow",
    "type_main": "ITEM_WEAPON",
    "type_sub": "WEAPON_BOW",
    "rank": 4,
    "img": "/image/game/genshin/weapon/UI_EquipIcon_Bow_Theocrat.png"
  },
  {
    "id": 15405,
    "name": "Rust",
    "type_main": "ITEM_WEAPON",
    "type_sub": "WEAPON_BOW",
    "rank": 4,
    "img": "/image/game/genshin/weapon/UI_EquipIcon_Bow_Recluse.png"
  },
  {
    "id": 15406,
    "name": "Prototype Crescent",
    "type_main": "ITEM_WEAPON",
    "type_sub": "WEAPON_BOW",
    "rank": 4,
    "img": "/image/game/genshin/weapon/UI_EquipIcon_Bow_Proto.png"
  },
  {
    "id": 15407,
    "name": "Compound Bow",
    "type_main": "ITEM_WEAPON",
    "type_sub": "WEAPON_BOW",
    "rank": 4,
    "img": "/image/game/genshin/weapon/UI_EquipIcon_Bow_Exotic.png"
  },
  {
    "id": 15408,
    "name": "Blackcliff Warbow",
    "type_main": "ITEM_WEAPON",
    "type_sub": "WEAPON_BOW",
    "rank": 4,
    "img": "/image/game/genshin/weapon/UI_EquipIcon_Bow_Blackrock.png"
  },
  {
    "id": 15409,
    "name": "The Viridescent Hunt",
    "type_main": "ITEM_WEAPON",
    "type_sub": "WEAPON_BOW",
    "rank": 4,
    "img": "/image/game/genshin/weapon/UI_EquipIcon_Bow_Viridescent.png"
  },
  {
    "id": 15410,
    "name": "Alley Hunter",
    "type_main": "ITEM_WEAPON",
    "type_sub": "WEAPON_BOW",
    "rank": 4,
    "img": "/image/game/genshin/weapon/UI_EquipIcon_Bow_Outlaw.png"
  },
  {
    "id": 15411,
    "name": "Fading Twilight",
    "type_main": "ITEM_WEAPON",
    "type_sub": "WEAPON_BOW",
    "rank": 4,
    "img": "/image/game/genshin/weapon/UI_EquipIcon_Bow_Fallensun.png"
  },
  {
    "id": 15412,
    "name": "Mitternachts Waltz",
    "type_main": "ITEM_WEAPON",
    "type_sub": "WEAPON_BOW",
    "rank": 4,
    "img": "/image/game/genshin/weapon/UI_EquipIcon_Bow_Nachtblind.png"
  },
  {
    "id": 15413,
    "name": "Windblume Ode",
    "type_main": "ITEM_WEAPON",
    "type_sub": "WEAPON_BOW",
    "rank": 4,
    "img": "/image/game/genshin/weapon/UI_EquipIcon_Bow_Fleurfair.png"
  },
  {
    "id": 15414,
    "name": "Hamayumi",
    "type_main": "ITEM_WEAPON",
    "type_sub": "WEAPON_BOW",
    "rank": 4,
    "img": "/image/game/genshin/weapon/UI_EquipIcon_Bow_Bakufu.png"
  },
  {
    "id": 15415,
    "name": "Predator",
    "type_main": "ITEM_WEAPON",
    "type_sub": "WEAPON_BOW",
    "rank": 4,
    "img": "/image/game/genshin/weapon/UI_EquipIcon_Bow_Predator.png"
  },
  {
    "id": 15416,
    "name": "Mouun's Moon",
    "type_main": "ITEM_WEAPON",
    "type_sub": "WEAPON_BOW",
    "rank": 4,
    "img": "/image/game/genshin/weapon/UI_EquipIcon_Bow_Maria.png"
  },
  {
    "id": 15417,
    "name": "King's Squire",
    "type_main": "ITEM_WEAPON",
    "type_sub": "WEAPON_BOW",
    "rank": 4,
    "img": "/image/game/genshin/weapon/UI_EquipIcon_Bow_Arakalari.png"
  },
  {
    "id": 15418,
    "name": "End of the Line",
    "type_main": "ITEM_WEAPON",
    "type_sub": "WEAPON_BOW",
    "rank": 4,
    "img": "/image/game/genshin/weapon/UI_EquipIcon_Bow_Fin.png"
  },
  {
    "id": 15419,
    "name": "Ibis Piercer",
    "type_main": "ITEM_WEAPON",
    "type_sub": "WEAPON_BOW",
    "rank": 4,
    "img": "/image/game/genshin/weapon/UI_EquipIcon_Bow_Ibis.png"
  },
  {
    "id": 15424,
    "name": "Scion of the Blazing Sun",
    "type_main": "ITEM_WEAPON",
    "type_sub": "WEAPON_BOW",
    "rank": 4,
    "img": "/image/game/genshin/weapon/UI_EquipIcon_Bow_Gurabad.png"
  },
  {
    "id": 15425,
    "name": "Song of Stillness",
    "type_main": "ITEM_WEAPON",
    "type_sub": "WEAPON_BOW",
    "rank": 4,
    "img": "/image/game/genshin/weapon/UI_EquipIcon_Bow_Vorpal.png"
  },
  {
    "id": 15501,
    "name": "Skyward Harp",
    "type_main": "ITEM_WEAPON",
    "type_sub": "WEAPON_BOW",
    "rank": 5,
    "img": "/image/game/genshin/weapon/UI_EquipIcon_Bow_Dvalin.png"
  },
  {
    "id": 15502,
    "name": "Amos' Bow",
    "type_main": "ITEM_WEAPON",
    "type_sub": "WEAPON_BOW",
    "rank": 5,
    "img": "/image/game/genshin/weapon/UI_EquipIcon_Bow_Amos.png"
  },
  {
    "id": 15503,
    "name": "Elegy for the End",
    "type_main": "ITEM_WEAPON",
    "type_sub": "WEAPON_BOW",
    "rank": 5,
    "img": "/image/game/genshin/weapon/UI_EquipIcon_Bow_Widsith.png"
  },
  {
    "id": 15504,
    "name": "Kunwu's Wyrmbane",
    "type_main": "ITEM_WEAPON",
    "type_sub": "WEAPON_BOW",
    "rank": 5,
    "img": "/image/game/genshin/weapon/UI_EquipIcon_Bow_Hunters.png"
  },
  {
    "id": 15505,
    "name": "Primordial Jade Vista",
    "type_main": "ITEM_WEAPON",
    "type_sub": "WEAPON_BOW",
    "rank": 5,
    "img": "/image/game/genshin/weapon/UI_EquipIcon_Bow_Hunters.png"
  },
  {
    "id": 15506,
    "name": "Mirror Breaker",
    "type_main": "ITEM_WEAPON",
    "type_sub": "WEAPON_BOW",
    "rank": 5,
    "img": "/image/game/genshin/weapon/UI_EquipIcon_Bow_Hunters.png"
  },
  {
    "id": 15507,
    "name": "Polar Star",
    "type_main": "ITEM_WEAPON",
    "type_sub": "WEAPON_BOW",
    "rank": 5,
    "img": "/image/game/genshin/weapon/UI_EquipIcon_Bow_Worldbane.png"
  },
  {
    "id": 15508,
    "name": "Aqua Simulacra",
    "type_main": "ITEM_WEAPON",
    "type_sub": "WEAPON_BOW",
    "rank": 5,
    "img": "/image/game/genshin/weapon/UI_EquipIcon_Bow_Kirin.png"
  },
  {
    "id": 15509,
    "name": "Thundering Pulse",
    "type_main": "ITEM_WEAPON",
    "type_sub": "WEAPON_BOW",
    "rank": 5,
    "img": "/image/game/genshin/weapon/UI_EquipIcon_Bow_Narukami.png"
  },
  {
    "id": 15511,
    "name": "Hunter's Path",
    "type_main": "ITEM_WEAPON",
    "type_sub": "WEAPON_BOW",
    "rank": 5,
    "img": "/image/game/genshin/weapon/UI_EquipIcon_Bow_Ayus.png"
  },
  {
    "id": 15512,
    "name": "The First Great Magic",
    "type_main": "ITEM_WEAPON",
    "type_sub": "WEAPON_BOW",
    "rank": 5,
    "img": "/image/game/genshin/weapon/UI_EquipIcon_Bow_Pledge.png"
  }
]